################      기업 App    #####################


+++++++++++++++++++++++++++++++++++++++++++++++++++++
SQL :  출연자 조회(조회 조건 긴급 포함)
+++++++++++++++++++++++++++++++++++++++++++++++++++++
파라미터 : #{companySeq}, #{companyMemberSeq}, #{supportField}, #{hopeCast}, #{startAge}, #{endAge}, #{memberGender}
	#{height}, #{weight}, #{requestCount}, #{bodyInfo}, #{classInfo}, #{hairHeight}, #{tatooInfo}, #{pierInfo}, #{adminYn}
	#{searchData}, #{searchKind}, #{startDate}, #{endDate}, #{startNo}, #{endNo}
+++++++++++++++++++++++++++++++++++++++++++++++++++++

SELECT * FROM
(
	SELECT 
		A.MEMBER_SEQ,				-- 회원 일련번호
		A.MEMBER_NM,				-- 회원 이름
		A.MEMBER_GENDER,			-- 회원 성별
		A.MEMBER_AGE,				-- 회원 나이
		A.MEMBER_ADDR,				-- 회원 기본주소
		A.MEMBER_ADDR_DETAIL,		-- 회원 상세 주소
		A.MEMBER_ADDR_NO,			-- 회원 우편번호
		A.HEIGHT,					-- 키
		A.WEIGHT,					-- 몸무게
		B.HAIR_STATE,				-- 헤어상태
		(	SELECT COMMON_INFO_VALUE2 
			FROM tb_common_info 
			WHERE COMMON_INFO_CODE = 'HAIR_STATE' 
			AND COMMON_INFO_VALUE1 =  B.HAIR_STATE	) AS HAIR_STATE_NM,	-- 헤어상태
		A.MEMBER_SUBWAY_NAME,		-- 가까운 지하철역
		A.MEMBER_SUBWAY_TIME,		-- 소요시간
		B.DRESS_BASE_COUNT, 		-- 의상기본정장 벌수
		B.DRESS_BASE_COLOR, 		-- 의상기본정장 색상
		B.DRESS_SEMI_COUNT, 		-- 의상세미정장 벌수
		B.DRESS_SEMI_COLOR, 		-- 의상세미정장 색상
		B.DRESS_BLACK_SHOES, 		-- 의상검정구두
		B.DRESS_SWIMSUIT, 			-- 의상수영복
		B.DRESS_SCHOOL_UNIFORM, 	-- 의상교복
		B.DRESS_MILITARY_BOOTS, 	-- 의상군화
		A.PHOTO_ATTACH_SEQS,		-- 이미지 일련번호(프로그램에서 배열처리해서 웹경로 조회)
		(
			SELECT COUNT(*) FROM tb_member_interset WHERE COMPANY_SEQ = #{companySeq} AND COMPANY_MEMBER_SEQ = #{companyMemberSeq} AND MEMBER_SEQ = A.MEMBER_SEQ
		) AS MEMBER_INTERSET,		-- 관심회원 여부 0 = 관심회원아님
		B.SUPPORT_FIELD,			-- 지원분야
		B.HOPE_CAST,				-- 희망배역
		(
			SELECT COUNT(*) FROM tb_requst_info WHERE MEMBER_SEQ = A.MEMBER_SEQ AND REQUEST_STATE = 'R2' AND COMPANY_MEMBER_END_DTM != '0000-00-00 00:00:00' AND ATTEND_NO_STATE = 'A1'
		) AS REQUEST_COUNT,			-- 출연횟수
		B.BODY_INFO,				-- 신체사항
		B.CLASS_INFO,				-- 보유 방송등급
		B.HAIR_HEIGHT,				-- 헤어길이
		B.TATOO_INFO,				-- 문신여부
		B.PIER_INFO				-- 피어싱 여부
		
	FROM tb_member_base A, -- 회원 기본
		 tb_member_detail B	-- 회원 상세
	WHERE A.MEMBER_SEQ = B.MEMBER_SEQ
	-- 정지 상태가 아닌회원
	AND (A.MEMBER_STOP_DTM <= now() OR A.MEMBER_STOP_DTM = '0000-00-00 00:00:00')
	-- 회원상태 확인
	AND A.MEMBER_STATE = 'M2'
	-- 본인 회사 회원만 보일경우 아래 조건 추가되어야함(어플관리자는 제외[#{adminYn}])
	-- AND A.MEMBER_COMPANY_INFO = #{companySeq}
) CC
WHERE 1 = 1
-- 지원분야[공코 : SUPPORT_FIELD ]
AND SUPPORT_FIELD = #{supportField}
-- 희망배역[공코 : HOPE_CAST ]
AND HOPE_CAST = #{hopeCast}
-- 연령
AND MEMBER_AGE >= #{startAge}
AND MEMBER_AGE <= #{endAge}
-- 성별
AND MEMBER_GENDER = #{memberGender}
-- 키
AND HEIGHT = #{height}
-- 몸무게
AND WEIGHT = #{weight}
-- 출연횟수
AND REQUEST_COUNT > #{requestCount}
-- 신체사항[공코 : BODY_INFO ]
AND BODY_INFO = #{bodyInfo}
-- 보유 방송등급[공코 : CLASS_INFO ]
AND CLASS_INFO = #{classInfo}
-- 헤어길이[공코 : HAIR_HEIGHT ]
AND HAIR_HEIGHT = #{hairHeight}
-- 타투여부[공코 : TATOO_INFO ]
AND TATOO_INFO = #{tatooInfo}
-- 피어싱여부[공코 : PIER_INFO ]
AND PIER_INFO = #{pierInfo}
-- 지역
AND MEMBER_ADDR LIKE '%' || #{searchData} || '%'
-- 이름
AND MEMBER_NM LIKE '%' || #{searchData} || '%'
-- 역명
AND MEMBER_SUBWAY_NAME LIKE '%' || #{searchData} || '%'
-- 촬영 가능일
AND  MEMBER_SEQ NOT IN (
	SELECT AA.MEMBER_SEQ
	FROM tb_member_base AA, 			-- 회원 기본
		 tb_member_schedule BB  	-- 일정 불가능 테이블 
	WHERE AA.MEMBER_SEQ = BB.BUSN_LINK_KEY
	AND AA.MEMBER_SEQ = MEMBER_SEQ
	AND BB.SCHEDULE_DTM BETWEEN #{startDate} AND #{endDate}
	GROUP BY AA.MEMBER_SEQ
)
-- 긴급
AND  MEMBER_SEQ NOT IN (
	SELECT AA.MEMBER_SEQ
	FROM tb_member_base AA, 			-- 회원 기본
		 tb_member_schedule BB  	-- 일정 불가능 테이블 
	WHERE AA.MEMBER_SEQ = BB.BUSN_LINK_KEY
	AND AA.MEMBER_SEQ = MEMBER_SEQ
	AND date_format(BB.SCHEDULE_DTM, '%Y.%m.%d') = date_format(now(), '%Y.%m.%d')
	GROUP BY AA.MEMBER_SEQ
)
LIMIT #{startNo}, #{endNo}


+++++++++++++++++++++++++++++++++++++++++++++++++++++
SQL :  관심출연자 등록
+++++++++++++++++++++++++++++++++++++++++++++++++++++
파라미터 : #{companySeq}, #{companyMemberSeq}, #{memberSeq}

+++++++++++++++++++++++++++++++++++++++++++++++++++++
INSERT INTO tb_member_interset ( COMPANY_SEQ, COMPANY_MEMBER_SEQ, MEMBER_SEQ, CREATE_NO, TRT_NO, CREATE_DTM, TRT_DTM)
VALUES( #{companySeq}, #{companyMemberSeq}, #{memberSeq}, #{companyMemberSeq}, #{companyMemberSeq}, now(), now() )


+++++++++++++++++++++++++++++++++++++++++++++++++++++
SQL :  관심출연자 삭제
+++++++++++++++++++++++++++++++++++++++++++++++++++++
파라미터 : #{companySeq}, #{companyMemberSeq}, #{memberSeq}

+++++++++++++++++++++++++++++++++++++++++++++++++++++
DELETE FROM tb_member_interset
WHERE COMPANY_SEQ = #{companySeq}
AND COMPANY_MEMBER_SEQ = #{companyMemberSeq}
AND MEMBER_SEQ = #{memberSeq}


+++++++++++++++++++++++++++++++++++++++++++++++++++++
SQL :  출연요청
+++++++++++++++++++++++++++++++++++++++++++++++++++++
파라미터 : #{memberSeq}, #{rcutBaseSeq}, #{companySeq}, #{companyMemberSeq}

+++++++++++++++++++++++++++++++++++++++++++++++++++++
INSERT INTO tb_requst_info( COMPANY_SEQ, COMPANY_MEMBER_SEQ, MEMBER_SEQ, RCUT_BASE_SEQ, REQUEST_KIND, REQUEST_STATE, CREATE_NO, TRT_NO, CREATE_DTM, TRT_DTM)
VALUES( #{companySeq}, #{companyMemberSeq}, #{memberSeq}, #{rcutBaseSeq}, 'R1', 'R1', #{companySeq}, #{companySeq}, now(), now())  -- 개인요청, 대기


+++++++++++++++++++++++++++++++++++++++++++++++++++++
SQL :  프로그램 조회
+++++++++++++++++++++++++++++++++++++++++++++++++++++
파라미터 : #{companySeq}

+++++++++++++++++++++++++++++++++++++++++++++++++++++
SELECT * FROM tb_pgm_base
WHERE COMPANY_SEQ = #{companySeq}
AND PGM_END_DTM  >= now()			-- 종료안된 프로그램


+++++++++++++++++++++++++++++++++++++++++++++++++++++
SQL :  모집정보 조회
+++++++++++++++++++++++++++++++++++++++++++++++++++++
파라미터 : #{pgmBaseSeq}

+++++++++++++++++++++++++++++++++++++++++++++++++++++
SELECT * FROM tb_rcut_base
WHERE PGM_BASE_SEQ = #{pgmBaseSeq}
AND PGM_REAL_END_DTM IS NULL			-- 모집 종료 상태 아닌경우
AND PGM_END_DTM  >= now()				-- 종료안된 프로그램
AND RCUT_BASE_STATE = 'R1'

+++++++++++++++++++++++++++++++++++++++++++++++++++++
SQL :  출연자 상세 조회
+++++++++++++++++++++++++++++++++++++++++++++++++++++
파라미터 : #{memberSeq}

+++++++++++++++++++++++++++++++++++++++++++++++++++++
-- 회원정보
SELECT 
	A.MEMBER_SEQ,
	A.MEMBER_NM,							-- 이름
	A.MEMBER_GENDER,						-- 성별
	(	SELECT COMMON_INFO_VALUE2 
		FROM tb_common_info 
		WHERE COMMON_INFO_CODE = 'GENDER' 
		AND COMMON_INFO_VALUE1 =  A.MEMBER_GENDER	) AS GENDER_NM,		-- 성별
	A.MEMBER_AGE, 							-- 나이
	A.MEMBER_KIND,							-- 회원종류
	(	SELECT COMMON_INFO_VALUE2 
		FROM tb_common_info 
		WHERE COMMON_INFO_CODE = 'MEMBER_KIND' 
		AND COMMON_INFO_VALUE1 =  A.MEMBER_KIND	) AS MEMBER_KIND_NM,		-- 회원종류
	A.MEMBER_COMPANY_INFO,					-- (MEMBER_KIND = 2 번이면 소속사 이름,  MEMBER_KIND = 3번이면 기업 시퀀스)
	A.MEMBER_HP_KIND,						-- 휴대폰회사종류
	(	SELECT COMMON_INFO_VALUE2 
		FROM tb_common_info 
		WHERE COMMON_INFO_CODE = 'HP_KIND' 
		AND COMMON_INFO_VALUE1 =  A.MEMBER_HP_KIND	) AS MEMBER_HP_KIND_NM,		-- 휴대폰회사종류
	A.MEMBER_HP,							-- 휴대폰번호
	A.MEMBER_ADDR,							-- 주소
	A.MEMBER_ADDR_DETAIL,					-- 상세주소
	A.MEMBER_SUBWAY_NAME,					-- 가까운지하철
	A.MEMBER_SUBWAY_TIME,					-- 소요시간
	A.MEMBER_ADDR_NO,						-- 우편번호
	A.HEIGHT,								-- 키
	A.WEIGHT,								-- 몸무게
	A.EMAIL,								-- 이메일
	A.ACC_NO,								-- 계좌번호
	A.ACC_BANK_NAME,						-- 계좌은행
	(	SELECT COMMON_INFO_VALUE2 
		FROM tb_common_info 
		WHERE COMMON_INFO_CODE = 'BANK_NAME' 
		AND COMMON_INFO_VALUE1 =  A.ACC_BANK_NAME	) AS ACC_BANK_NAME_NM,		-- 계좌은행
	A.ACC_NAME,								-- 계좌예금주
	A.COMPANY_NO_ATTACH_SEQ,				-- 사업자등록증증빙서류첨부번호
	A.PHOTO_ATTACH_SEQS,					-- 사진첨부번호-배열
	A.VIDEO_ATTACH_SEQS,					-- 영상첨부번호-배열
	
	
	B.JOB,																	-- 직업
	(	SELECT COMMON_INFO_VALUE2 
		FROM tb_common_info 
		WHERE COMMON_INFO_CODE = 'JOB' 
		AND COMMON_INFO_VALUE1 =  B.JOB	) AS JOB_NM,							-- 직업
	B.SUPPORT_FIELD,														-- 지원분야
	(	SELECT COMMON_INFO_VALUE2 
		FROM tb_common_info 
		WHERE COMMON_INFO_CODE = 'SUPPORT_FIELD' 
		AND COMMON_INFO_VALUE1 =  B.SUPPORT_FIELD	) AS SUPPORT_FIELD_NM,		-- 지원분야
	B.HOPE_CAST,															-- 희방배역
	(	SELECT COMMON_INFO_VALUE2 
		FROM tb_common_info 
		WHERE COMMON_INFO_CODE = 'HOPE_CAST' 
		AND COMMON_INFO_VALUE1 =  B.HOPE_CAST	) AS HOPE_CAST_NM,				-- 희방배역
	B.HOPE_CAST_ETC,														-- 희방배역기타
	B.BODY_INFO,															-- 신체사항
	(	SELECT COMMON_INFO_VALUE2 
		FROM tb_common_info 
		WHERE COMMON_INFO_CODE = 'BODY_INFO' 
		AND COMMON_INFO_VALUE1 =  B.BODY_INFO	) AS BODY_INFO_NM,				-- 신체사항
	B.CLASS_INFO,															-- 보유방송등급(없음,18~1등급)
	(	SELECT COMMON_INFO_VALUE2 
		FROM tb_common_info 
		WHERE COMMON_INFO_CODE = 'CLASS_INFO' 
		AND COMMON_INFO_VALUE1 =  B.CLASS_INFO	) AS CLASS_INFO_NM,			-- 보유방송등급(없음,18~1등급)
	B.HAIR_STATE,															-- 헤어상태
	(	SELECT COMMON_INFO_VALUE2 
		FROM tb_common_info 
		WHERE COMMON_INFO_CODE = 'HAIR_STATE' 
		AND COMMON_INFO_VALUE1 =  B.HAIR_STATE	) AS HAIR_STATE_NM,			-- 헤어상태
	B.HAIR_HEIGHT,															-- 헤어길이
	(	SELECT COMMON_INFO_VALUE2 
		FROM tb_common_info 
		WHERE COMMON_INFO_CODE = 'HAIR_HEIGHT' 
		AND COMMON_INFO_VALUE1 =  B.HAIR_HEIGHT	) AS HAIR_HEIGHT_NM,			-- 헤어길이
	B.TOOTH_CORREC,															-- 치아교정
	(	SELECT COMMON_INFO_VALUE2 
		FROM tb_common_info 
		WHERE COMMON_INFO_CODE = 'TOOTH_CORREC' 
		AND COMMON_INFO_VALUE1 =  B.TOOTH_CORREC	) AS TOOTH_CORREC_NM,		-- 치아교정
	B.EXPOSURE_INFO,														-- 노출가능여부
	(	SELECT COMMON_INFO_VALUE2 
		FROM tb_common_info 
		WHERE COMMON_INFO_CODE = 'EXPOSURE_INFO' 
		AND COMMON_INFO_VALUE1 =  B.EXPOSURE_INFO	) AS EXPOSURE_INFO_NM,		-- 노출가능여부
	B.TATOO_INFO,															-- 문신
	(	SELECT COMMON_INFO_VALUE2 
		FROM tb_common_info 
		WHERE COMMON_INFO_CODE = 'TATOO_INFO' 
		AND COMMON_INFO_VALUE1 =  B.TATOO_INFO	) AS TATOO_INFO_NM,			-- 문신
	B.PIER_INFO,															-- 피어싱
	(	SELECT COMMON_INFO_VALUE2 
		FROM tb_common_info 
		WHERE COMMON_INFO_CODE = 'PIER_INFO' 
		AND COMMON_INFO_VALUE1 =  B.PIER_INFO	) AS PIER_INFO_NM,				-- 피어싱
	B.BEARD_INFO,															-- 수염
	(	SELECT COMMON_INFO_VALUE2 
		FROM tb_common_info 
		WHERE COMMON_INFO_CODE = 'BEARD_INFO' 
		AND COMMON_INFO_VALUE1 =  B.BEARD_INFO	) AS BEARD_INFO_NM,			-- 수염
	B.DIMPLE_INFO,															-- 보조개
	(	SELECT COMMON_INFO_VALUE2 
		FROM tb_common_info 
		WHERE COMMON_INFO_CODE = 'DIMPLE_INFO' 
		AND COMMON_INFO_VALUE1 =  B.DIMPLE_INFO	) AS DIMPLE_INFO_NM,			-- 보조개
	B.DOUBLE_EYE_INFO,														-- 눈쌍꺼플
	(	SELECT COMMON_INFO_VALUE2 
		FROM tb_common_info 
		WHERE COMMON_INFO_CODE = 'DOUBLE_EYE_INFO' 
		AND COMMON_INFO_VALUE1 =  B.DOUBLE_EYE_INFO	) AS DOUBLE_EYE_INFO_NM,	-- 눈쌍꺼플
	B.BOTTOMS_SIZE,															-- 하의사이즈
	(	SELECT COMMON_INFO_VALUE2 
		FROM tb_common_info 
		WHERE COMMON_INFO_CODE = 'BOTTOMS_SIZE' 
		AND COMMON_INFO_VALUE1 =  B.BOTTOMS_SIZE	) AS BOTTOMS_SIZE_NM,		-- 하의사이즈
	B.TOP_SIZE,																-- 상의사이즈
	(	SELECT COMMON_INFO_VALUE2 
		FROM tb_common_info 
		WHERE COMMON_INFO_CODE = 'TOP_SIZE' 
		AND COMMON_INFO_VALUE1 =  B.TOP_SIZE	) AS TOP_SIZE_NM,				-- 상의사이즈
	B.FOOT_SIZE,															-- 발사이즈
	B.DRIVE_BICYCLE_YN,														-- 자전거운전
	(	SELECT COMMON_INFO_VALUE2 
		FROM tb_common_info 
		WHERE COMMON_INFO_CODE = 'DRIVE_BICYCLE_YN' 
		AND COMMON_INFO_VALUE1 =  B.DRIVE_BICYCLE_YN	) AS DRIVE_BICYCLE_YN_NM,	-- 자전거운전
	B.DRIVE_CAR_YN,																-- 자동차운전
	(	SELECT COMMON_INFO_VALUE2 
		FROM tb_common_info 
		WHERE COMMON_INFO_CODE = 'DRIVE_CAR_YN' 
		AND COMMON_INFO_VALUE1 =  B.DRIVE_CAR_YN	) AS DRIVE_CAR_YN_NM,			-- 자동차운전
	B.DRIVE_MOTERCYCLE_YN,														-- 오토바이운전
	(	SELECT COMMON_INFO_VALUE2 
		FROM tb_common_info 
		WHERE COMMON_INFO_CODE = 'DRIVE_MOTERCYCLE_YN' 
		AND COMMON_INFO_VALUE1 =  B.DRIVE_MOTERCYCLE_YN	) AS DRIVE_MOTERCYCLE_YN_NM,	-- 오토바이운전
	B.SMOKE_YN,																		-- 흡연여부([공코]비흡연,흡연)
	(	SELECT COMMON_INFO_VALUE2 
		FROM tb_common_info 
		WHERE COMMON_INFO_CODE = 'SMOKE_YN' 
		AND COMMON_INFO_VALUE1 =  B.SMOKE_YN	) AS SMOKE_YN_NM,						-- 흡연여부([공코]비흡연,흡연)
	B.DRESS_BASE_COUNT,																-- 의상기본정장 벌수
	B.DRESS_BASE_COLOR,																-- 의상기본정장 색상
	B.DRESS_SEMI_COUNT,																-- 의상세미정장 벌수
	B.DRESS_SEMI_COLOR,																-- 의상세미정장 색상
	B.DRESS_BLACK_SHOES,															-- 의상검정구두
	B.DRESS_SWIMSUIT,																-- 의상수영복
	B.DRESS_SCHOOL_UNIFORM,															-- 의상교복
	B.DRESS_MILITARY_BOOTS,															-- 의상군화
	B.VISIT_DTM																		-- 방문가능일
		

FROM tb_member_base A, tb_member_detail B
WHERE 1 = 1
AND A.MEMBER_SEQ = B.MEMBER_SEQ
AND A.MEMBER_SEQ = #{memberSeq}

-- 첨부파일
SELECT *
FROM tb_attach
AND BUSN_LINK_KEY = #{memberSeq}

-- 회원경력
SELECT 
	(	SELECT COMMON_INFO_VALUE2 
		FROM tb_common_info 
		WHERE COMMON_INFO_CODE = 'FIELD' 
		AND COMMON_INFO_VALUE1 =  FIELD	) AS FIELD,			-- 분류
	PGM_NAME,												-- 작업명
	(	SELECT COMMON_INFO_VALUE2 
		FROM tb_common_info 
		WHERE COMMON_INFO_CODE = 'BROADCASTING_STATION' 
		AND COMMON_INFO_VALUE1 =  BROADCASTING_STATION	) AS BROADCASTING_STATION,			-- 방송국
	YEAR,																					-- 년도
	(	SELECT COMMON_INFO_VALUE2 
		FROM tb_common_info 
		WHERE COMMON_INFO_CODE = 'PART' 
		AND COMMON_INFO_VALUE1 =  PART	) AS PART,											-- 배역
	LINES_YN
FROM tb_member_career
WHERE MEMBER_SEQ = #{memberSeq}

-- 평가조회
SELECT *
FROM tb_member_review
WHERE MEMBER_SEQ = #{memberSeq}
ORDER BY CREATE_DTM DESC
LIMIT 10

-- 최근작업(일주일)
SELECT 
	C.PGM_NAME,																	-- 프로그램명
	(	SELECT COMMON_INFO_VALUE2 
		FROM tb_common_info 
		WHERE COMMON_INFO_CODE = 'HOPE_CAST' 
		AND COMMON_INFO_VALUE1 =  B.PGM_HOPE_CAST	) AS PGM_HOPE_CAST,			-- 모집분야
	(	SELECT COMMON_INFO_VALUE2 
		FROM tb_common_info 
		WHERE COMMON_INFO_CODE = 'PGM_REUT_FIELD' 
		AND COMMON_INFO_VALUE1 =  C.PGM_REUT_FIELD	) AS PGM_REUT_FIELD,		-- 모집분야
	B.PGM_START_DTM																-- 촬영시작
FROM tb_requst_info A, tb_rcut_base B, tb_pgm_base C
WHERE A.RCUT_BASE_SEQ = B.RCUT_BASE_SEQ
AND B.PGM_BASE_SEQ = C.PGM_BASE_SEQ
AND A.MEMBER_SEQ = #{memberSeq}
AND A.REQUEST_STATE = 'R2'
AND A.CANCEL_KIND IS NOT NULL
AND A.ATTEND_NO_STATE = 'A1'
ORDER BY B.PGM_START_DTM DESC
LIMIT 10

-- 모집상세에서 출연자상세조회시 추가항목(출연자확인사항,관리자확인사항)
#{rcutBaseSeq} 파라미터 필수

SELECT
	ATTEND_NO_STATE,				-- 출석여부
	(	SELECT COMMON_INFO_VALUE2 
		FROM tb_common_info 
		WHERE COMMON_INFO_CODE = 'ATTEND_NO_STATE' 
		AND COMMON_INFO_VALUE1 =  ATTEND_NO_STATE	) AS ATTEND_NO_STATE_NM,			-- 출석여부
	ATTEND_NO_LEAVE_STATE,			-- 무단이탈여부
	(	SELECT COMMON_INFO_VALUE2 
		FROM tb_common_info 
		WHERE COMMON_INFO_CODE = 'ATTEND_NO_LEAVE_STATE' 
		AND COMMON_INFO_VALUE1 =  ATTEND_NO_LEAVE_STATE	) AS ATTEND_NO_LEAVE_STATE_NM,			-- 무단이탈여부
	ATTEND_NO_LEAVE_NOTE,			-- 출석,무단이탈상태확인사항
	ME_GETUP_DTM,					-- 본인기상일시
	ME_GETUP_POINT,					-- 본인기상장소
	ME_STRART_DTM,					-- 본인출발일시
	ME_STRART_POINT,				-- 본인출발장소
	ME_ATTEND_DTM,					-- 본인출석일시
	ME_ATTEND_POINT,				-- 본인출석장소
	ME_END_DTM,						-- 본인종료일시
	ME_END_POINT,					-- 본인종료장소
	COMPANY_MEMBER_ATTEND_DTM,		-- 관리자출석일시
	COMPANY_MEMBER_ATTEND_POINT,	-- 관리자출석장소
	COMPANY_MEMBER_END_DTM,			-- 관리자종료일시
	COMPANY_MEMBER_END_POINT,		-- 관리자종료장소
	ATTEND_NO_LEAVE_COMPANY_MEMBER_NAME	-- 출석,무단이탈상태확인사항입력담당자정보
FROM tb_requst_info
WHERE MEMBER_SEQ = #{memberSeq}
AND RCUT_BASE_SEQ = #{rcutBaseSeq}

+++++++++++++++++++++++++++++++++++++++++++++++++++++
SQL :  프로그램 등록
+++++++++++++++++++++++++++++++++++++++++++++++++++++
파라미터 : #{companySeq}, #{pgmStartDtm}, #{pgmEndDtm}, #{pgmReutField}, #{pgmName}
			#{companyMemberSeq}, #{mainInfo}, #{etcInfo}, #{pgmImgAttachSeq}

+++++++++++++++++++++++++++++++++++++++++++++++++++++

-- 등록
INSERT INTO tb_pgm_base( COMPANY_SEQ, PGM_START_DTM, PGM_END_DTM, PGM_REUT_FIELD, PGM_NAME,  
						 COMPANY_MEMBER_SEQ, MAIN_INFO, ETC_INFO, PGM_IMG_ATTACH_SEQ, CREATE_NO, TRT_NO, CREATE_DTM, TRT_DTM )
VALUES( #{companySeq}, #{pgmStartDtm}, #{pgmEndDtm}, #{pgmReutField}, #{pgmName}, #{companyMemberSeq}, #{mainInfo},  
		#{etcInfo}, #{pgmImgAttachSeq}, #{companyMemberSeq}, #{companyMemberSeq}, now(), now() )

-- 이력 등록
INSERT INTO tb_pgm_his( PGM_BASE_SEQ, HIS_KIND, COMPANY_SEQ, PGM_START_DTM, PGM_END_DTM, PGM_REUT_FIELD, PGM_NAME,  
						 COMPANY_MEMBER_SEQ, MAIN_INFO, ETC_INFO, PGM_IMG_ATTACH_SEQ, CREATE_NO, TRT_NO, CREATE_DTM, TRT_DTM )
VALUES( #{pgmBaseSeq}, 'H1', #{companySeq}, #{pgmStartDtm}, #{pgmEndDtm}, #{pgmReutField}, #{pgmName}, #{companyMemberSeq}, #{mainInfo},  
		#{etcInfo}, #{pgmImgAttachSeq}, #{companyMemberSeq}, #{companyMemberSeq}, now(), now() )

-- 담당자 등록
INSERT INTO tb_charge_info ( CHARGE_KIND, PGM_BASE_SEQ, COMPANY_MEMBER_SEQ, CREATE_NO, TRT_NO, CREATE_DTM, TRT_DTM)
VALUES( 'C1', #{pgmBaseSeq}, #{chargeCompanyMemberSeq}, #{companyMemberSeq}, #{companyMemberSeq}, now(),now())



+++++++++++++++++++++++++++++++++++++++++++++++++++++
SQL :  당담자 리스트 조회
+++++++++++++++++++++++++++++++++++++++++++++++++++++
파라미터 :

+++++++++++++++++++++++++++++++++++++++++++++++++++++

SELECT 
	
	COMPANY_SEQ,					-- 기업기본시퀀스
	CEO_YN,							-- 대표자여부
	COMPANY_MEMBER_NAME,			-- 담당자이름
	COMPANY_MEMBER_POSITION,		-- 담당자직책
	COMPANY_MEMBER_TEL,				-- 담당자전화번호
	(	SELECT COMMON_INFO_VALUE2 
		FROM tb_common_info 
		WHERE COMMON_INFO_CODE = 'COMPANY_MEMBER_PHONE_KIND' 
		AND COMMON_INFO_VALUE1 =  COMPANY_MEMBER_PHONE_KIND	) AS COMPANY_MEMBER_PHONE_KIND_NM,	-- 담당자휴대폰회사종류
	COMPANY_MEMBER_PHONE_NO,		-- 담당자휴대전화번호
	AUTH_INFO_SEQ,					-- 권한일련번호
	PUSH_ID,						-- 푸쉬아이디
	(	SELECT COMMON_INFO_VALUE2 
		FROM tb_common_info 
		WHERE COMMON_INFO_CODE = 'PUSH_TYPE' 
		AND COMMON_INFO_VALUE1 =  PUSH_TYPE	) AS PUSH_TYPE_NM,	-- 1:PSID[안드로이드], 2: CUID[아이폰]
	PUSH_TYPE,						-- 1:PSID[안드로이드], 2: CUID[아이폰]
	COMPANY_MEMBER_ORG_NAME			-- 조직이름

FROM tb_company_member
WHERE 1 = 1
AND COMPANY_SEQ = #{companySeq}


+++++++++++++++++++++++++++++++++++++++++++++++++++++
SQL :  프로그램 목록 조회
+++++++++++++++++++++++++++++++++++++++++++++++++++++
파라미터 : #{pgmReutField}, #{state}, #{startDate}, #{endDate}, #{searchData}, #{startNo}, #{endNo}
#{companyMemberSeq}, #{companySeq}
+++++++++++++++++++++++++++++++++++++++++++++++++++++
SELECT 
	A.PGM_BASE_SEQ,					-- 프로그램기본일련번호
	A.COMPANY_SEQ,					-- 기업기본시퀀스
	A.PGM_START_DTM,					-- 촬영시작
	A.PGM_END_DTM,					-- 촬영종료
	A.PGM_REUT_FIELD,					-- 분야
	A.PGM_NAME,						-- 프로그램명
	A.COMPANY_MEMBER_SEQ,				-- 담당자대표
	(
		SELECT COMPANY_MEMBER_NAME FROM tb_company_member WHERE COMPANY_MEMBER_SEQ = A.COMPANY_MEMBER_SEQ
	) AS COMPANY_MEMBER_NAME,			-- 대표담당자이름
	(
		SELECT COMPANY_MEMBER_PHONE_NO FROM tb_company_member WHERE COMPANY_MEMBER_SEQ = A.COMPANY_MEMBER_SEQ
	) AS COMPANY_MEMBER_PHONE_NO,		-- 대표담당자전화번호
	(
		SELECT COMPANY_MEMBER_POSITION FROM tb_company_member WHERE COMPANY_MEMBER_SEQ = A.COMPANY_MEMBER_SEQ
	) AS COMPANY_MEMBER_POSITION,		-- 대표담당자직책
	A.MAIN_INFO,						-- 주요사항
	A.ETC_INFO,							-- 기타사항
	A.PGM_IMG_ATTACH_SEQ,				-- 대표이미지
	(
		SELECT FILE_WEB_PATH FROM tb_attach WHERE ATTACH_SEQ = A.PGM_IMG_ATTACH_SEQ
	) AS PGM_IMG_WEB_PATH,														-- 대표이미지 웹경로
	(SELECT GROUP_CONCAT(COMPANY_MEMBER_SEQ ,'') FROM tb_charge_info WHERE PGM_BASE_SEQ = A.PGM_BASE_SEQ) AS COMPANY_MEMBER_SEQS -- 담당자리스트
FROM tb_pgm_base A
WHERE 1 = 1
<if test="adminYn == null or adminYn == 'false'">
-- 기업전체
AND A.COMPANY_SEQ = #{companySeq}
-- 로그인한 담당자 프로그램만 조회
AND A.PGM_BASE_SEQ IN(
	SELECT PGM_BASE_SEQ FROM tb_charge_info WHERE COMPANY_MEMBER_SEQ = #{companyMemberSeq}
) #{companyMemberSeq}
</if>
-- 분야
AND A.PGM_REUT_FIELD = #{pgmReutField}
<![CDATA[
-- 상태 대기
AND.A.PGM_START_DTM > now()
]]>
<![CDATA[
-- 상태 진행중
AND A.PGM_START_DTM <= now()
AND A.PGM_END_DTM >= now()
]]>
<![CDATA[
-- 상태 종료
AND A.PGM_END_DTM < now()
]]>
<![CDATA[
-- 촬영기간조회
AND A.PGM_START_DTM >= #{startDate}
AND A.PGM_END_DTM <= #{endDate}
]]>
-- 검색어조회
AND A.PGM_NAME LIKE '%${searchData}%'
LIMIT #{startNo}, #{endNo}

+++++++++++++++++++++++++++++++++++++++++++++++++++++
SQL :  프로그램 상세
+++++++++++++++++++++++++++++++++++++++++++++++++++++
파라미터 :

+++++++++++++++++++++++++++++++++++++++++++++++++++++
SELECT 
	PGM_BASE_SEQ, 
	COMPANY_SEQ,
	PGM_START_DTM,
	PGM_END_DTM,
	PGM_REUT_FIELD,
	(	SELECT COMMON_INFO_VALUE2 
		FROM tb_common_info 
		WHERE COMMON_INFO_CODE = 'PGM_REUT_FIELD' 
		AND COMMON_INFO_VALUE1 =  PGM_REUT_FIELD	) AS PGM_REUT_FIELD_NM,
	PGM_NAME,
	COMPANY_MEMBER_SEQ,
	MAIN_INFO,
	ETC_INFO,
	PGM_IMG_ATTACH_SEQ
	
	
FROM tb_pgm_base
WHERE PGM_BASE_SEQ = #{pgmBaseSeq}

-- 첨부파일 정보조회
SELECT *
FROM tb_attach
WHERE ATTACH_SEQ = #{attachSeq}

-- 담당자 정보 조회
SELECT * 
FROM tb_charge_info
WHERE CHARGE_KIND = 'C1'
AND PGM_BASE_SEQ = #{pgmBaseSeq}

-- 수정이력 조회
SELECT * FROM tb_pgm_his
WHERE PGM_BASE_SEQ = #{pgmBaseSeq}
AND HIS_KIND = 'H2'

+++++++++++++++++++++++++++++++++++++++++++++++++++++
SQL :  프로그램 수정
+++++++++++++++++++++++++++++++++++++++++++++++++++++
파라미터 :

+++++++++++++++++++++++++++++++++++++++++++++++++++++
-- 프로그램 수정
UPDATE tb_pgm_base SET PGM_START_DTM = #{pgmStartDtm}, PGM_END_DTM = #{pgmEndDtm}, PGM_REUT_FIELD = #{pgmReutField}, PGM_NAME = #{pgmName}, COMPANY_MEMBER_SEQ = #{companyMemberSeq},
					   MAIN_INFO = #{mainInfo}, ETC_INFO = #{etcInfo}, PGM_IMG_ATTACH_SEQ = #{pgmImgAttachSeq}, TRT_NO = #{companyMemberSeq}, TRT_DTM = now()
WHERE PGM_BASE_SEQ = #{pgmBaseSeq}

-- 프로그램 이력 입력
INSERT INTO tb_pgm_his( PGM_BASE_SEQ, HIS_KIND, COMPANY_SEQ, PGM_START_DTM, PGM_END_DTM, PGM_REUT_FIELD, PGM_NAME,  
						 COMPANY_MEMBER_SEQ, MAIN_INFO, ETC_INFO, PGM_IMG_ATTACH_SEQ, CREATE_NO, TRT_NO, CREATE_DTM, TRT_DTM )
VALUES( #{pgmBaseSeq}, 'H2', #{companySeq}, #{pgmStartDtm}, #{pgmEndDtm}, #{pgmReutField}, #{pgmName} #{companyMemberSeq}, #{mainInfo},  
		#{etcInfo}, #{pgmImgAttachSeq}, (SELECT CREATE_NO FROM tb_pgm_base WHERE PGM_BASE_SEQ = #{pgmBaseSeq}), 
		(SELECT TRT_NO FROM tb_pgm_base WHERE PGM_BASE_SEQ = #{pgmBaseSeq}), (SELECT CREATE_DTM FROM tb_pgm_base WHERE PGM_BASE_SEQ = #{pgmBaseSeq}), (select TRT_DTM from tb_pgm_base where pgm_base_seq = #{pgmbaseseq}) )


-- 담당자 수정
DELETE FROM tb_charge_info WHERE PGM_BASE_SEQ = #{pgmBaseSeq}

INSERT INTO tb_charge_info ( CHARGE_KIND, PGM_BASE_SEQ, COMPANY_MEMBER_SEQ, CREATE_NO, TRT_NO, CREATE_DTM, TRT_DTM)
VALUES( 'C1', #{pgmBaseSeq}, #{chargeCompanyMemberSeq}, #{companyMemberSeq}, #{companyMemberSeq}, now(),now())



+++++++++++++++++++++++++++++++++++++++++++++++++++++
SQL :  프로그램 삭제
+++++++++++++++++++++++++++++++++++++++++++++++++++++
파라미터 : #{pgmBaseSeq}

+++++++++++++++++++++++++++++++++++++++++++++++++++++
-- 프로그램삭제
DELETE FROM tb_pgm_base WHERE PGM_BASE_SEQ = #{pgmBaseSeq}
-- 담당자삭제
DELETE FROM tb_charge_info WHERE PGM_BASE_SEQ = #{pgmBaseSeq}



+++++++++++++++++++++++++++++++++++++++++++++++++++++
SQL :  출연자 모집 등록
+++++++++++++++++++++++++++++++++++++++++++++++++++++
파라미터 : #{pgmBaseSeq}, #{companySeq}, #{pgmStartDtm}, #{pgmEndDtm}, #{pgmHopeCast}, #{pgmPoint}
			#{pgmMeetingHour}, #{pgmMeetingMinite}, #{pgmSupplies}, #{pgmMainScene}, #{pgmEtcInfo}
			#{companyMemberSeq}, #{pgmImgAttachSeq}, #{rcutBaseState}

			#{rcutBaseSeq}, #{ageMin}, #{ageMax}, #{gender}, #{peopleNum}, #{dressInfo}, #{partInfo}
			
			#{chargeCompanyMemberSeq}
			
+++++++++++++++++++++++++++++++++++++++++++++++++++++

-- 모집 기본 등록
INSERT INTO tb_rcut_base( PGM_BASE_SEQ, COMPANY_SEQ, PGM_START_DTM, PGM_END_DTM, PGM_HOPE_CAST, PGM_POINT, PGM_MEETING_HOUR, PGM_MEETING_MINITE, PGM_SUPPLIES, PGM_MAIN_SCENE, PGM_ETC_INFO, COMPANY_MEMBER_SEQ, PGM_IMG_ATTACH_SEQ, RCUT_BASE_STATE, CREATE_NO, TRT_NO, CREATE_DTM, TRT_DTM)
VALUES ( #{pgmBaseSeq}, #{companySeq}, #{pgmStartDtm}, #{pgmEndDtm}, #{pgmHopeCast}, #{pgmPoint}, #{pgmMeetingHour}, #{pgmMeetingMinite}, #{pgmSupplies}, #{pgmMainScene}, #{pgmEtcInfo}, #{companyMemberSeq}, #{pgmImgAttachSeq}, #{rcutBaseState}, #{companyMemberSeq}, #{companyMemberSeq}, now(), now() ) 

-- 모집인원정보등록
INSERT INTO tb_rcut_sub_info( RCUT_BASE_SEQ, AGE_MIN, AGE_MAX, GENDER, PEOPLE_NUM, DRESS_INFO, PART_INFO, CREATE_NO, TRT_NO, CREATE_DTM, TRT_DTM)
VALUES( #{rcutBaseSeq}, #{ageMin}, #{ageMax}, #{gender}, #{peopleNum}, #{dressInfo}, #{partInfo},#{companyMemberSeq}, #{companyMemberSeq}, now(), now() )

-- 담당자 등록
INSERT INTO tb_charge_info ( CHARGE_KIND, RCUT_BASE_SEQ, COMPANY_MEMBER_SEQ, CREATE_NO, TRT_NO, CREATE_DTM, TRT_DTM)
VALUES( 'C2', #{rcutBaseSeq}, #{chargeCompanyMemberSeq}, #{companyMemberSeq}, #{companyMemberSeq}, now(),now())


-- 모집 기본 이력

INSERT INTO tb_rcut_base_his( RCUT_BASE_SEQ, PGM_BASE_SEQ, HIS_KIND, COMPANY_SEQ, PGM_START_DTM, PGM_END_DTM, PGM_HOPE_CAST, PGM_POINT, PGM_MEETING_HOUR, PGM_MEETING_MINITE, PGM_SUPPLIES, PGM_MAIN_SCENE, PGM_ETC_INFO, COMPANY_MEMBER_SEQ, PGM_IMG_ATTACH_SEQ, RCUT_BASE_STATE, CREATE_NO, TRT_NO, CREATE_DTM, TRT_DTM)
VALUES (#{rcutBaseSeq}, #{pgmBaseSeq}, 'H1', #{companySeq}, #{pgmStartDtm}, #{pgmEndDtm}, #{pgmHopeCast}, #{pgmPoint}, #{pgmMeetingHour}, #{pgmMeetingMinite}, #{pgmSupplies}, #{pgmMainScene}, #{pgmEtcInfo}, #{companyMemberSeq}, #{pgmImgAttachSeq}, #{rcutBaseState}, #{companyMemberSeq}, #{companyMemberSeq}, now(), now() ) 


-- 모집인원정보 이력
INSERT INTO tb_rcut_sub_info_his( RCUT_SUB_INFO_SEQ, RCUT_BASE_SEQ, HIS_KIND, AGE_MIN, AGE_MAX, GENDER, PEOPLE_NUM, DRESS_INFO, PART_INFO, CREATE_NO, TRT_NO, CREATE_DTM, TRT_DTM)
VALUES( #{rcutSubInfoSeq}, #{rcutBaseSeq}, 'H1', #{ageMin}, #{ageMax}, #{gender}, #{peopleNum}, #{dressInfo}, #{partInfo},#{companyMemberSeq},#{companyMemberSeq}, now(), now() )

+++++++++++++++++++++++++++++++++++++++++++++++++++++
SQL :  출연자 모집 수정
+++++++++++++++++++++++++++++++++++++++++++++++++++++
파라미터 :

+++++++++++++++++++++++++++++++++++++++++++++++++++++

-- 모집 기본 수정
UPDATE tb_rcut_base SET PGM_START_DTM=#{pgmStartDtm}, PGM_END_DTM=#{pgmEndDtm}, PGM_HOPE_CAST=#{pgmHopeCast}, PGM_POINT=#{pgmPoint}, PGM_MEETING_HOUR=#{pgmMeetingHour},
					PGM_MEETING_MINITE=#{pgmMeetingMinite}, PGM_SUPPLIES=#{pgmSupplies}, PGM_MAIN_SCENE=#{pgmMainScene}, PGM_ETC_INFO=#{pgmEtcInfo}, COMPANY_MEMBER_SEQ=#{companyMemberSeq},PGM_IMG_ATTACH_SEQ=#{pgmImgAttachSeq}, TRT_NO=#{companyMemberSeq}, TRT_DTM=now()
WHERE RCUT_BASE_SEQ = #{rcutBaseSeq}

-- 모집인원정보 삭제
DELETE FROM tb_rcut_sub_info
WHERE RCUT_BASE_SEQ = #{rcutBaseSeq}

-- 모집인원정보등록
INSERT INTO tb_rcut_sub_info( RCUT_BASE_SEQ, AGE_MIN, AGE_MAX, GENDER, PEOPLE_NUM, DRESS_INFO, PART_INFO, CREATE_NO, TRT_NO, CREATE_DTM, TRT_DTM)
VALUES( #{rcutBaseSeq}, #{ageMin}, #{ageMax}, #{gender}, #{peopleNum}, #{dressInfo}, #{partInfo},#{companyMemberSeq}, now(), now() )

-- 담당자 수정
DELETE FROM tb_charge_info WHERE RCUT_BASE_SEQ = #{rcutBaseSeq}

INSERT INTO tb_charge_info ( CHARGE_KIND, RCUT_BASE_SEQ, COMPANY_MEMBER_SEQ, CREATE_NO, TRT_NO, CREATE_DTM, TRT_DTM)
VALUES( 'C2', #{rcutBaseSeq}, #{chargeCompanyMemberSeq}, #{companyMemberSeq}, #{companyMemberSeq}, now(),now())


-- 모집 기본 이력
INSERT INTO tb_rcut_base_his( RCUT_BASE_SEQ, PGM_BASE_SEQ, HIS_KIND, COMPANY_SEQ, PGM_START_DTM, PGM_END_DTM, PGM_HOPE_CAST, PGM_POINT, PGM_MEETING_HOUR, PGM_MEETING_MINITE, PGM_SUPPLIES, PGM_MAIN_SCENE, PGM_ETC_INFO, COMPANY_MEMBER_SEQ, PGM_IMG_ATTACH_SEQ, RCUT_BASE_STATE, CREATE_NO, TRT_NO, CREATE_DTM, TRT_DTM)
VALUES (#{rcutBaseSeq}, #{pgmBaseSeq}, 'H2', #{companySeq}, #{pgmStartDtm}, #{pgmEndDtm}, #{pgmHopeCast}, #{pgmPoint}, {pgmMeetingHour}, #{pgmMeetingMinite}, #{pgmSupplies}, #{pgmMainScene}, #{pgmEtcInfo}, #{companyMemberSeq}, #{pgmImgAttachSeq}, #{rcutBaseState}, (SELECT CREATE_NO FROM tb_rcut_base WHERE RCUT_BASE_SEQ = #{rcutBaseSeq}), (SELECT TRT_NO FROM tb_rcut_base WHERE RCUT_BASE_SEQ = #{rcutBaseSeq}), (SELECT CREATE_DTM FROM tb_rcut_base WHERE RCUT_BASE_SEQ = #{rcutBaseSeq}), (SELECT TRT_DTM FROM tb_rcut_base WHERE RCUT_BASE_SEQ = #{rcutBaseSeq}) ) 

-- 모집인원정보 이력
INSERT INTO tb_rcut_sub_info_his( RCUT_SUB_INFO_SEQ, RCUT_BASE_SEQ, HIS_KIND, AGE_MIN, AGE_MAX, GENDER, PEOPLE_NUM, DRESS_INFO, PART_INFO, CREATE_NO, TRT_NO, CREATE_DTM, TRT_DTM)
VALUES( #{rcutSubInfoSeq}, #{rcutBaseSeq}, 'H1', #{ageMin}, #{ageMax}, #{gender}, #{peopleNum}, #{dressInfo}, #{partInfo},(SELECT CREATE_NO FROM tb_rcut_sub_info WHERE RCUT_SUB_INFO_SEQ = #{rcutSubInfoSeq}), (SELECT TRT_NO FROM tb_rcut_sub_info WHERE RCUT_SUB_INFO_SEQ = #{rcutSubInfoSeq}), (SELECT CREATE_DTM FROM tb_rcut_sub_info WHERE RCUT_SUB_INFO_SEQ = #{rcutSubInfoSeq}), (SELECT TRT_DTM FROM tb_rcut_sub_info WHERE RCUT_SUB_INFO_SEQ = #{rcutSubInfoSeq}) )

+++++++++++++++++++++++++++++++++++++++++++++++++++++
SQL :  출연자 모집 삭제
+++++++++++++++++++++++++++++++++++++++++++++++++++++
파라미터 : #{rcutBaseSeq}, #{rcutSubInfoSeq}

+++++++++++++++++++++++++++++++++++++++++++++++++++++
-- 프로그램삭제
DELETE FROM tb_rcut_base WHERE RCUT_BASE_SEQ = #{rcutBaseSeq}
DELETE FROM tb_rcut_sub_info WHERE RCUT_SUB_INFO_SEQ = #{rcutSubInfoSeq}
-- 담당자삭제
DELETE FROM tb_charge_info WHERE RCUT_BASE_SEQ = #{rcutBaseSeq}


+++++++++++++++++++++++++++++++++++++++++++++++++++++
SQL :  출연자 모집 목록 조회
+++++++++++++++++++++++++++++++++++++++++++++++++++++
파라미터 : #{companyMemberSeq}

+++++++++++++++++++++++++++++++++++++++++++++++++++++
SELECT 

A.RCUT_BASE_SEQ,														-- 모집일련번호
(	SELECT COMMON_INFO_VALUE2 
	FROM tb_common_info 
	WHERE COMMON_INFO_CODE = 'PGM_REUT_FIELD' 
	AND COMMON_INFO_VALUE1 =  B.PGM_REUT_FIELD	) AS PGM_REUT_FIELD_NM,	-- 프로그램 분야
(	SELECT COMMON_INFO_VALUE2 
	FROM tb_common_info 
	WHERE COMMON_INFO_CODE = 'HOPE_CAST' 
	AND COMMON_INFO_VALUE1 =  A.PGM_HOPE_CAST	) AS PGM_HOPE_CAST,		-- 모집분야
B.PGM_NAME,																-- 프로그램명
A.PGM_START_DTM,														-- 촬영시작일시
A.PGM_END_DTM,															-- 촬영종료일시
A.PGM_POINT,															-- 촬영장소
COALESCE(A.PGM_IMG_ATTACH_SEQ, B.PGM_IMG_ATTACH_SEQ) AS PGM_IMG_ATTACH_SEQ,	-- 대표이미지 일련번호
(
	SELECT FILE_WEB_PATH FROM tb_attach WHERE ATTACH_SEQ = COALESCE(A.PGM_IMG_ATTACH_SEQ, B.PGM_IMG_ATTACH_SEQ)
) AS FILE_WEB_PATH,													-- 대표이미지 웹경로
(SELECT GROUP_CONCAT(COMPANY_MEMBER_SEQ, '') FROM tb_charge_info WHERE RCUT_BASE_SEQ = A.RCUT_BASE_SEQ) AS COMPANY_MEMBER_SEQS -- 담당자리스트
FROM tb_rcut_base A, 		-- 모집기본
 tb_pgm_base B			-- 프로그램기본
WHERE 1 = 1
AND A.PGM_BASE_SEQ = B.PGM_BASE_SEQ	
AND A.RCUT_BASE_SEQ = C.RCUT_BASE_SEQ

<if test="adminYn == null or adminYn == 'false'">
-- 기업전체
AND A.COMPANY_SEQ = #{companySeq}
<if test="comAdminYn == null or comAdminYn == 'false'">
-- 로그인한 담당자 프로그램만 조회
AND A.RCUT_BASE_SEQ IN(
	SELECT RCUT_BASE_SEQ FROM tb_charge_info WHERE COMPANY_MEMBER_SEQ = #{companyMemberSeq}
	AND RCUT_BASE_SEQ = A.RCUT_BASE_SEQ
)
</if>
</if>

<if test="stateKind != null and stateKind == 'S1'">
-- 예정(모집중)프로그램
AND DATE_ADD(A.PGM_START_DTM, INTERVAL -12 HOUR) >= now()
AND A.PGM_REAL_END_DTM = '0000-00-00 00:00:00'
AND A.RCUT_BASE_STATE = 'R1'
</if>
<if test="stateKind != null and stateKind == 'S2'">
-- 예정(모집완료)프로그램
AND A.RCUT_BASE_STATE = 'R2'
AND A.PGM_REAL_END_DTM = '0000-00-00 00:00:00'
</if>
<if test="stateKind != null and stateKind == 'S3'">
-- 진행중프로그램
AND A.RCUT_BASE_STATE IN ('R1','R2')
<![CDATA[
AND A.PGM_REAL_END_DTM = '0000-00-00 00:00:00'
AND DATE_ADD(A.PGM_START_DTM, INTERVAL -12 HOUR) <= now()
AND A.PGM_END_DTM >= now()
]]>
</if>
<if test="stateKind != null and stateKind == 'S4'">
-- 종료프로그램
<![CDATA[
AND (A.PGM_END_DTM < now() OR A.RCUT_BASE_STATE = 'R3' OR A.PGM_REAL_END_DTM != '0000-00-00 00:00:00'	)
]]>
</if>
<if test="startDate != null and startDate != '' and endDate != null and endDate != ''">
<![CDATA[
-- 촬영일 조회
AND A.PGM_START_DTM >= #{startDate}
AND A.PGM_END_DTM <= #{endDate}
]]>
</if>
<if test="searchData != null and searchData != ''">
-- 프로그램 제목 조회
AND A.PGM_NAME LIKE '%${searchData}%'
</if>
ORDER BY A.CREATE_DTM DESC  		-- 등록일
LIMIT #{startNo}, #{endNo}


+++++++++++++++++++++++++++++++++++++++++++++++++++++
SQL :  출연자 모집 상세 조회
+++++++++++++++++++++++++++++++++++++++++++++++++++++
파라미터 :

+++++++++++++++++++++++++++++++++++++++++++++++++++++
출연자 APP (출연자 모집 상세  조회) 쿼리 사용  



+++++++++++++++++++++++++++++++++++++++++++++++++++++
SQL :  출연자 모집 상세  - 출연자 목록 보기
+++++++++++++++++++++++++++++++++++++++++++++++++++++
파라미터 : #{memberStateCode}, #{companySeq}, #{companyMemberSeq}, #{rcutBaseSeq}

+++++++++++++++++++++++++++++++++++++++++++++++++++++

SELECT *
FROM (
		SELECT 
			A.MEMBER_SEQ,				-- 회원 일련번호
			A.MEMBER_NM,				-- 회원 이름
			A.MEMBER_GENDER,			-- 회원 성별
			A.MEMBER_AGE,				-- 회원 나이
			A.MEMBER_ADDR,				-- 회원 기본주소
			A.MEMBER_ADDR_DETAIL,		-- 회원 상세 주소
			A.MEMBER_ADDR_NO,			-- 회원 우편번호
			A.HEIGHT,					-- 키
			A.WEIGHT,					-- 몸무게
			B.HAIR_STATE,				-- 헤어상태
			(	SELECT COMMON_INFO_VALUE2 
				FROM tb_common_info 
				WHERE COMMON_INFO_CODE = 'HAIR_STATE' 
				AND COMMON_INFO_VALUE1 =  B.HAIR_STATE	) AS HAIR_STATE_NM,	-- 헤어상태
			A.MEMBER_SUBWAY_NAME,		-- 가까운 지하철역
			A.MEMBER_SUBWAY_TIME,		-- 소요시간
			B.DRESS_BASE_COUNT, 		-- 의상기본정장 벌수
			B.DRESS_BASE_COLOR, 		-- 의상기본정장 색상
			B.DRESS_SEMI_COUNT, 		-- 의상세미정장 벌수
			B.DRESS_SEMI_COLOR, 		-- 의상세미정장 색상
			B.DRESS_BLACK_SHOES, 		-- 의상검정구두
			B.DRESS_SWIMSUIT, 			-- 의상수영복
			B.DRESS_SCHOOL_UNIFORM, 	-- 의상교복
			B.DRESS_MILITARY_BOOTS, 	-- 의상군화
			A.PHOTO_ATTACH_SEQS,		-- 이미지 일련번호(프로그램에서 배열처리해서 웹경로 조회)
			(
				SELECT COUNT(*) FROM tb_member_interset 
				WHERE COMPANY_SEQ = #{companySeq} 
				AND COMPANY_MEMBER_SEQ = #{companyMemberSeq} 
				AND MEMBER_SEQ = A.MEMBER_SEQ
			) AS MEMBER_INTERSET,		-- 관심회원 여부 0 = 관심회원아님
			B.SUPPORT_FIELD,			-- 지원분야
			B.HOPE_CAST,				-- 희망배역
			(
				SELECT COUNT(*) FROM tb_requst_info WHERE MEMBER_SEQ = A.MEMBER_SEQ AND REQUEST_STATE = 'R2' AND COMPANY_MEMBER_END_DTM != '0000-00-00 00:00:00' AND ATTEND_NO_STATE = 'A1'
			) REQUEST_COUNT,				-- 출연횟수
			B.BODY_INFO,				-- 신체사항
			B.CLASS_INFO,				-- 보유 방송등급
			B.HAIR_HEIGHT,				-- 헤어길이
			B.TATOO_INFO,				-- 문신여부
			B.PIER_INFO,				-- 피어싱 여부
			C.REQUST_INFO_SEQ,			-- 출연신청일련번호
			C.RCUT_BASE_SEQ,			-- 모집일련번호
			CASE
			   WHEN C.ME_ATTEND_DTM != '0000-00-00 00:00:00' AND (D.PGM_START_DTM < C.ME_ATTEND_DTM  OR C.ATTEND_NO_STATE = 'A3') AND C.REQUEST_STATE='R2'
			   THEN 'A1'
			   WHEN C.ATTEND_NO_LEAVE_STATE = 'A2' AND C.REQUEST_STATE='R2'
			   THEN 'A2'
			   WHEN C.ME_GETUP_DTM != '0000-00-00 00:00:00'   AND C.REQUEST_STATE='R2'
			   THEN 'A3'
			   WHEN C.ME_STRART_DTM != '0000-00-00 00:00:00'  AND C.REQUEST_STATE='R2'
			   THEN 'A4'
			   WHEN C.ME_ATTEND_DTM != '0000-00-00 00:00:00'   AND C.REQUEST_STATE='R2'
			   THEN 'A5'
                WHEN C.ME_ATTEND_DTM = '0000-00-00 00:00:00'  AND C.REQUEST_STATE='R2' AND D.PGM_START_DTM > now()
			   THEN 'A6'
			   WHEN C.REQUEST_STATE='R2'  
			   THEN 'A7'
			   WHEN C.REQUEST_STATE='R1' AND REQUEST_KIND ='R2'
			   THEN 'A8'
			   WHEN C.REQUEST_STATE='R2' AND REQUEST_KIND ='R1'  
			   THEN 'A9'
			   ELSE ''
			END AS MEMBER_STATE_CODE,		-- 회원 상태 코드

			CASE
			   WHEN C.ME_ATTEND_DTM != '0000-00-00 00:00:00' AND (D.PGM_START_DTM < C.ME_ATTEND_DTM  OR C.ATTEND_NO_STATE = 'A3') AND C.REQUEST_STATE='R2'
			   THEN '출석(지각)'
			   WHEN C.ATTEND_NO_LEAVE_STATE = 'A2' AND C.REQUEST_STATE='R2'
			   THEN '무단이탈'
			   WHEN C.ME_GETUP_DTM != '0000-00-00 00:00:00' AND C.REQUEST_STATE='R2' 
			   THEN '기상'
			   WHEN C.ME_STRART_DTM != '0000-00-00 00:00:00' AND C.REQUEST_STATE='R2'
			   THEN '출발'
			   WHEN C.ME_ATTEND_DTM != '0000-00-00 00:00:00'  AND C.REQUEST_STATE='R2'
			   THEN '출석'
			   WHEN C.ME_ATTEND_DTM = '0000-00-00 00:00:00'  AND C.REQUEST_STATE='R2' AND D.PGM_START_DTM > now()
			   THEN '미출석'
			   WHEN C.REQUEST_STATE='R2'  
			   THEN '확정'
			   WHEN C.REQUEST_STATE='R1' AND REQUEST_KIND ='R2'
			   THEN '신청'
			   WHEN C.REQUEST_STATE='R2' AND REQUEST_KIND ='R1'  
			   THEN '요청중'
			   ELSE ''
			END AS MEMBER_STATE_NAME		-- 회원 상태 명
		FROM tb_member_base A, -- 회원 기본
			 tb_member_detail B,-- 회원 상세
			 tb_requst_info C, -- 출연신청 테이블
			 tb_rcut_base D -- 프로그램 모집 테이블
		WHERE A.MEMBER_SEQ = B.MEMBER_SEQ
		AND B.MEMBER_SEQ = C.MEMBER_SEQ
		AND C.RCUT_BASE_SEQ = D.RCUT_BASE_SEQ
		-- 정지 상태가 아닌회원
		AND (A.MEMBER_STOP_DTM <= now() OR A.MEMBER_STOP_DTM = '0000-00-00 00:00:00')
		-- 회원상태 확인
		AND A.MEMBER_STATE = 'M2'
		-- 취소상태 아닌것
		AND C.REQUEST_STATE != 'R3'
		-- 해당 모집 조회
		AND C.RCUT_BASE_SEQ = #{rcutBaseSeq}
		   
        
		-- 수락만 보고 싶을때 (확정)
		AND C.REQUEST_STATE = 'R2'
        -- 수락만 보고 싶을때 (신청)
		AND C.REQUEST_STATE = 'R1'
        AND C.REQUEST_KIND = 'R2'
        -- 수락만 보고 싶을때 ( 요청중)
		AND C.REQUEST_STATE = 'R2'
        AND C.REQUEST_KIND = 'R1'
        -- 검색어 이름
        AND A.MEMBER_NM LIKE  '%${searchData}%'
	) CC
WHERE 1 = 1
-- 출석(지각):A1/무단이탈:A2/기상:A3/출발:A4/출석:A5/미출석:A6/확정:A7/신청:A8/요청중:A9
AND MEMBER_STATE_CODE = #{memberStateCode}
LIMIT #{startNo}, #{endNo}


+++++++++++++++++++++++++++++++++++++++++++++++++++++
SQL :  출연자 모집 상세  - 출연자 목록 보기(통계)
+++++++++++++++++++++++++++++++++++++++++++++++++++++
파라미터 :

+++++++++++++++++++++++++++++++++++++++++++++++++++++
-- [총 모집 인원]
SELECT SUM(PEOPLE_NUM) TOT_COUNT FROM tb_rcut_sub_info WHERE RCUT_BASE_SEQ = #{rcutBaseSeq}


-- [총 모집 신청 인원]
SELECT COUNT(*) 
FROM tb_requst_info A, tb_member_base B
WHERE  A.MEMBER_SEQ =B.MEMBER_SEQ
AND A.RCUT_BASE_SEQ = #{rcutBaseSeq} 
-- 수락
AND A.REQUEST_STATE = 'R2' 
-- 회원상태 확인
AND B.MEMBER_STATE = 'M2'
-- 정지 상태가 아닌회원
AND (B.MEMBER_STOP_DTM <= now() OR B.MEMBER_STOP_DTM = '0000-00-00 00:00:00')


-- [모집인원정보]
SELECT 	
	C.AGE_MIN,
	C.AGE_MAX,
	C.GENDER,
	(	SELECT COMMON_INFO_VALUE2 
		FROM tb_common_info 
		WHERE COMMON_INFO_CODE = 'GENDER' 
		AND COMMON_INFO_VALUE1 =  C.GENDER	) AS GENDER_NM,		-- 성별
	C.PEOPLE_NUM,
	(
		
		SELECT COUNT(*) 
		FROM tb_requst_info A, tb_member_base B
		WHERE  A.MEMBER_SEQ =B.MEMBER_SEQ
		AND A.RCUT_BASE_SEQ = #{rcutBaseSeq} 
		-- 수락만 보고 싶을때
		AND A.REQUEST_STATE = 'R2' 
		-- 취소상태 아닌것
		AND A.REQUEST_STATE != 'R3'
		-- 회원상태 확인
		AND B.MEMBER_STATE = 'M2'
		-- 정지 상태가 아닌회원
		AND (B.MEMBER_STOP_DTM <= now() OR B.MEMBER_STOP_DTM = '0000-00-00 00:00:00')
		AND B.MEMBER_AGE >= C.AGE_MIN
		AND B.MEMBER_AGE <= C.AGE_MAX
		AND B.MEMBER_GENDER = C.GENDER
		
	) AS TOT_CNT
FROM tb_rcut_sub_info C
WHERE C.RCUT_BASE_SEQ = #{rcutBaseSeq}

--[기상,출발,출석]

SELECT COUNT(*), 'A1' AS KIND, '기상' AS KIND_NM
FROM tb_requst_info A, tb_member_base B
WHERE  A.MEMBER_SEQ =B.MEMBER_SEQ
AND A.RCUT_BASE_SEQ = #{rcutBaseSeq} 
-- 수락만 보고 싶을때
AND A.REQUEST_STATE = 'R2' 
-- 회원상태 확인
AND B.MEMBER_STATE = 'M2'
-- 정지 상태가 아닌회원
AND (B.MEMBER_STOP_DTM <= now() OR B.MEMBER_STOP_DTM = '0000-00-00 00:00:00')
-- 기상시간
AND A.ME_GETUP_DTM != '0000-00-00 00:00:00'  

UNION 

SELECT COUNT(*), 'A2' AS KIND, '출발' AS KIND_NM
FROM tb_requst_info A, tb_member_base B
WHERE  A.MEMBER_SEQ =B.MEMBER_SEQ
AND A.RCUT_BASE_SEQ = #{rcutBaseSeq} 
-- 수락만 보고 싶을때
AND A.REQUEST_STATE = 'R2' 
-- 회원상태 확인
AND B.MEMBER_STATE = 'M2'
-- 정지 상태가 아닌회원
AND (B.MEMBER_STOP_DTM <= now() OR B.MEMBER_STOP_DTM = '0000-00-00 00:00:00')
-- 출발
AND A.ME_STRART_DTM != '0000-00-00 00:00:00'

UNION 

SELECT COUNT(*), 'A3' AS KIND, '출석' AS KIND_NM
FROM tb_requst_info A, tb_member_base B
WHERE  A.MEMBER_SEQ =B.MEMBER_SEQ
AND A.RCUT_BASE_SEQ = #{rcutBaseSeq} 
-- 수락만 보고 싶을때
AND A.REQUEST_STATE = 'R2' 
-- 회원상태 확인
AND B.MEMBER_STATE = 'M2'
-- 정지 상태가 아닌회원
AND (B.MEMBER_STOP_DTM <= now() OR B.MEMBER_STOP_DTM = '0000-00-00 00:00:00')
-- 출석
AND A.ME_ATTEND_DTM != '0000-00-00 00:00:00'

+++++++++++++++++++++++++++++++++++++++++++++++++++++
SQL :  출연자 모집 상세  - 출연자 목록 보기(스케줄변경알림조회)
+++++++++++++++++++++++++++++++++++++++++++++++++++++
파라미터 :

+++++++++++++++++++++++++++++++++++++++++++++++++++++

SELECT 
	A.BUSN_LINK_KEY,
	C.MEMBER_NM,
	C.MEMBER_HP,
	B.OPEN_YN,
	B.OPEN_DTM
FROM TB_PUSH_SEND A, TB_PUSH_RESULT B, TB_MEMBER_BASE C
WHERE A.PUSH_SEND_SEQ = B.PUSH_SEND_SEQ
AND A.BUSN_LINK_KEY = C.MEMBER_SEQ
AND A.RCUT_BASE_SEQ = #{rcutBaseSeq}
ORDER BY A.PUSH_SEND_COUNT DESC
LIMIT 1



+++++++++++++++++++++++++++++++++++++++++++++++++++++
SQL :  출연자 상세  - 출연자 목록 보기(알림발송)
+++++++++++++++++++++++++++++++++++++++++++++++++++++
파라미터 :

+++++++++++++++++++++++++++++++++++++++++++++++++++++
출연자 APP (푸쉬 등록) 쿼리 사용  



+++++++++++++++++++++++++++++++++++++++++++++++++++++
SQL :  출연자 모집 상세  - 출연자 목록 보기(요청취소, 수락, 확정취소)
+++++++++++++++++++++++++++++++++++++++++++++++++++++
파라미터 :

+++++++++++++++++++++++++++++++++++++++++++++++++++++
UPDATE tb_requst_info SET REQUEST_STATE = #{requestState}, TRT_DTM = now(),	TRT_NO = #{companyMemberSeq}
WHERE RCUT_BASE_SEQ = #{rcutBaseSeq}
AND MEMBER_SEQ = #{memberSeq}


+++++++++++++++++++++++++++++++++++++++++++++++++++++
SQL :  출연자 모집 상세  출연자 목록 보기(출석/종료 미출석)
+++++++++++++++++++++++++++++++++++++++++++++++++++++
파라미터 :

+++++++++++++++++++++++++++++++++++++++++++++++++++++
-- 출석/ 종료 /지각 일경우 #{attendNoState} = A3
UPDATE tb_requst_info SET 
	COMPANY_MEMBER_ATTEND_DTM = #{companyMemberAttendDtm} 
	COMPANY_MEMBER_ATTEND_POINT = #{companyMemberAttendPoint}, 
	
	COMPANY_MEMBER_END_DTM = #{companyMemberEndDtm} 
	COMPANY_MEMBER_END_POINT = #{companyMemberEndPoint},
	
	ATTEND_NO_STATE = #{attendNoState},
	
	TRT_DTM = now(),
	TRT_NO = #{companyMemberSeq}
	
WHERE REQUST_INFO_SEQ =  #{requestInfoSeq} 
AND RCUT_BASE_SEQ = #{rcutBaseSeq}
AND MEMBER_SEQ = #{memberSeq}





+++++++++++++++++++++++++++++++++++++++++++++++++++++
SQL :  출연자 모집 상세  출연자 목록 보기(미출석, 무단이탈 처리)
+++++++++++++++++++++++++++++++++++++++++++++++++++++
파라미터 :#{attendNoLeaveCompanyMemberName} 담당자 일련번호

+++++++++++++++++++++++++++++++++++++++++++++++++++++
UPDATE tb_requst_info SET 
	ATTEND_NO_LEAVE_STATE = #{attendNoLeaveState},
	<if test="attendNoLeaveState != null and attendNoLeaveState == 'A1'">
	ATTEND_NO_STATE = 'A2',
	</if>
	ATTEND_NO_LEAVE_NOTE = #{attendNoLeaveNote},
	ATTEND_NO_LEAVE_COMPANY_MEMBER_NAME = (SELECT COMPANY_MEMBER_NAME FROM tb_company_member WHERE COMPANY_MEMBER_SEQ = #{companyMemberSeq}) ,
	TRT_DTM = now(),
	TRT_NO = #{companyMemberSeq}
	
WHERE REQUST_INFO_SEQ =  #{requestInfoSeq}  
AND RCUT_BASE_SEQ = #{rcutBaseSeq}
AND MEMBER_SEQ = #{memberSeq}




+++++++++++++++++++++++++++++++++++++++++++++++++++++
SQL :  출연자 모집 상세  출연자 목록 보기(평가입력)
+++++++++++++++++++++++++++++++++++++++++++++++++++++
파라미터 :

+++++++++++++++++++++++++++++++++++++++++++++++++++++
INSERT INTO tb_member_review ( MEMBER_SEQ, COMPANY_MEMBER_SEQ, COMPANY_MEMBER_NAME, COMPANY_MEMBER_POSITION, COMPANY_MEMBER_ORG_NAME, COMPANY_NM, REQUST_INFO_SEQ, REVIEW_CNTN, CREATE_DTM, TRT_DTM, CREATE_NO, TRT_NO)
VALUES( #{memberSeq}, #{companyMemberSeq}, #{companyMemberName}, #{companyMemberPosition}, #{companyMemberOrgName}, #{companyNm}, #{requstInfoSeq}, #{reviewCntn}, now(), now(), #{companyMemberSeq}, #{companyMemberSeq})





+++++++++++++++++++++++++++++++++++++++++++++++++++++
SQL :  출연자 모집 촬영 종료 처리
+++++++++++++++++++++++++++++++++++++++++++++++++++++
파라미터 :

+++++++++++++++++++++++++++++++++++++++++++++++++++++
UPDATE tb_rcut_base SET 
	PGM_REAL_END_DTM = now(),
	PGM_END_COMPANY_MEMBER_SEQ = #{companyMemberSeq},
	RCUT_BASE_STATE = 'R3',
	TRT_DTM = now(),
	TRT_NO = #{companyMemberSeq}
	
WHERE RCUT_BASE_SEQ = #{rcutBaseSeq}





+++++++++++++++++++++++++++++++++++++++++++++++++++++
SQL :  출연자 모집 완료 처리
+++++++++++++++++++++++++++++++++++++++++++++++++++++
파라미터 :

+++++++++++++++++++++++++++++++++++++++++++++++++++++
UPDATE tb_rcut_base SET 
	RCUT_BASE_STATE = 'R2',
	TRT_DTM = now(),
	TRT_NO = #{companyMemberSeq}
	
WHERE RCUT_BASE_SEQ = #{rcutBaseSeq}





+++++++++++++++++++++++++++++++++++++++++++++++++++++
SQL :  회원가입 승인 , 반려 목록
+++++++++++++++++++++++++++++++++++++++++++++++++++++
파라미터 :

+++++++++++++++++++++++++++++++++++++++++++++++++++++

	SELECT 
		A.MEMBER_SEQ,				-- 회원 일련번호
		A.MEMBER_NM,				-- 회원 이름
		A.MEMBER_GENDER,			-- 회원 성별
		(	SELECT COMMON_INFO_VALUE2 
			FROM tb_common_info 
			WHERE COMMON_INFO_CODE = 'GENDER' 
			AND COMMON_INFO_VALUE1 =  A.MEMBER_GENDER	) AS MEMBER_GENDER_NM,	-- 회원 성별
		A.MEMBER_AGE,				-- 회원 나이
		A.MEMBER_ADDR,				-- 회원 기본주소
		A.MEMBER_ADDR_DETAIL,		-- 회원 상세 주소
		A.MEMBER_ADDR_NO,			-- 회원 우편번호
		A.HEIGHT,					-- 키
		A.WEIGHT,					-- 몸무게
		B.HAIR_STATE,				-- 헤어상태
		(	SELECT COMMON_INFO_VALUE2 
			FROM tb_common_info 
			WHERE COMMON_INFO_CODE = 'HAIR_STATE' 
			AND COMMON_INFO_VALUE1 =  B.HAIR_STATE	) AS HAIR_STATE_NM,	-- 헤어상태
		A.MEMBER_SUBWAY_NAME,		-- 가까운 지하철역
		A.MEMBER_SUBWAY_TIME,		-- 소요시간
		B.DRESS_BASE_COUNT, 		-- 의상기본정장 벌수
		B.DRESS_BASE_COLOR, 		-- 의상기본정장 색상
		B.DRESS_SEMI_COUNT, 		-- 의상세미정장 벌수
		B.DRESS_SEMI_COLOR, 		-- 의상세미정장 색상
		B.DRESS_BLACK_SHOES, 		-- 의상검정구두
		B.DRESS_SWIMSUIT, 			-- 의상수영복
		B.DRESS_SCHOOL_UNIFORM, 	-- 의상교복
		B.DRESS_MILITARY_BOOTS, 	-- 의상군화
		A.PHOTO_ATTACH_SEQS,		-- 이미지 일련번호(프로그램에서 배열처리해서 웹경로 조회)
		B.SUPPORT_FIELD,			-- 지원분야
		B.HOPE_CAST,				-- 희망배역
		B.BODY_INFO,				-- 신체사항
		B.CLASS_INFO,				-- 보유 방송등급
		B.HAIR_HEIGHT,				-- 헤어길이
		B.TATOO_INFO,				-- 문신여부
		B.PIER_INFO,				-- 피어싱 여부
		C.SCHEDULE_DTM				-- 일정 불가능 일정
	FROM tb_member_base A, -- 회원 기본
		 tb_member_detail B	-- 회원 상세
	WHERE A.MEMBER_SEQ = B.MEMBER_SEQ
	-- 회원상태 확인 M2 = 승인 M3 = 반려
	AND A.MEMBER_STATE = ${memberState}
	AND A.MEMBER_COMPANY_INFO = #{companySeq}
	-- 이름
	AND A.MEMBER_NM LIKE '%' || #{searchData} || '%'
	AND A.CREATE_DTM BETWEEN #{startDate} AND #{endDate}
	LIMIT #{startNo}, #{endNo}


+++++++++++++++++++++++++++++++++++++++++++++++++++++
SQL :  회원가입 승인/ 반려 처리
+++++++++++++++++++++++++++++++++++++++++++++++++++++
파라미터 :

+++++++++++++++++++++++++++++++++++++++++++++++++++++
-- 승인
UPDATE tb_member_base SET JOIN_APPR_DTM = now(), JOIN_APPR_COMPANY = #{companySeq}, JOIN_APPR_PERSON = #{companyMemberSeq}, MEMBER_STATE = 'M2',
		TRT_DTM = now(), TRT_NO = #{companyMemberSeq}
WHERE MEMBER_SEQ = #{memberSeq}

-- 반려
UPDATE tb_member_base SET MEMBER_STATE = 'M3',
		TRT_DTM = now(), TRT_NO = #{companyMemberSeq}
WHERE MEMBER_SEQ = #{memberSeq}

+++++++++++++++++++++++++++++++++++++++++++++++++++++
SQL :  관심출연자 조회
+++++++++++++++++++++++++++++++++++++++++++++++++++++
파라미터 :

+++++++++++++++++++++++++++++++++++++++++++++++++++++
SELECT * FROM
(
	SELECT 
		A.MEMBER_SEQ,				-- 회원 일련번호
		A.MEMBER_NM,				-- 회원 이름
		A.MEMBER_GENDER,			-- 회원 성별
		(	SELECT COMMON_INFO_VALUE2 
			FROM tb_common_info 
			WHERE COMMON_INFO_CODE = 'GENDER' 
			AND COMMON_INFO_VALUE1 =  B.MEMBER_GENDER	) AS MEMBER_GENDER_NM,	-- 회원 성별
		A.MEMBER_AGE,				-- 회원 나이
		A.MEMBER_ADDR,				-- 회원 기본주소
		A.MEMBER_ADDR_DETAIL,		-- 회원 상세 주소
		A.MEMBER_ADDR_NO,			-- 회원 우편번호
		A.HEIGHT,					-- 키
		A.WEIGHT,					-- 몸무게
		B.HAIR_STATE,				-- 헤어상태
		(	SELECT COMMON_INFO_VALUE2 
			FROM tb_common_info 
			WHERE COMMON_INFO_CODE = 'HAIR_STATE' 
			AND COMMON_INFO_VALUE1 =  B.HAIR_STATE	) AS HAIR_STATE_NM,	-- 헤어상태
		A.MEMBER_SUBWAY_NAME,		-- 가까운 지하철역
		A.MEMBER_SUBWAY_TIME,		-- 소요시간
		B.DRESS_BASE_COUNT, 		-- 의상기본정장 벌수
		B.DRESS_BASE_COLOR, 		-- 의상기본정장 색상
		B.DRESS_SEMI_COUNT, 		-- 의상세미정장 벌수
		B.DRESS_SEMI_COLOR, 		-- 의상세미정장 색상
		B.DRESS_BLACK_SHOES, 		-- 의상검정구두
		B.DRESS_SWIMSUIT, 			-- 의상수영복
		B.DRESS_SCHOOL_UNIFORM, 	-- 의상교복
		B.DRESS_MILITARY_BOOTS, 	-- 의상군화
		A.PHOTO_ATTACH_SEQS,		-- 이미지 일련번호(프로그램에서 배열처리해서 웹경로 조회)
		(
			SELECT COUNT(*) FROM tb_member_interset 
			WHERE 1 = 1
			<if test="adminYn == null or adminYn == 'false'">
			AND COMPANY_SEQ = #{companySeq} 
				<if test="comAdminYn == null or comAdminYn == 'false'">
				AND COMPANY_MEMBER_SEQ = #{companyMemberSeq} 
				</if>
			</if> 
			AND MEMBER_SEQ = A.MEMBER_SEQ
			
		) AS MEMBER_INTERSET,		-- 관심회원 여부 0 = 관심회원아님
		B.SUPPORT_FIELD,			-- 지원분야
		B.HOPE_CAST,				-- 희망배역
		(
			SELECT COUNT(*) FROM tb_requst_info 
			WHERE MEMBER_SEQ = A.MEMBER_SEQ 
			AND REQUEST_STATE = 'R2' 
			AND COMPANY_MEMBER_END_DTM != '0000-00-00 00:00:00' 
			AND ATTEND_NO_STATE = 'A1'
		) REQUEST_COUNT				-- 출연횟수
		B.BODY_INFO,				-- 신체사항
		B.CLASS_INFO,				-- 보유 방송등급
		B.HAIR_HEIGHT,				-- 헤어길이
		B.TATOO_INFO,				-- 문신여부
		B.PIER_INFO					-- 피어싱 여부
	FROM tb_member_base A, -- 회원 기본
		 tb_member_detail B	-- 회원 상세
	WHERE A.MEMBER_SEQ = B.MEMBER_SEQ
	-- 정지 상태가 아닌회원
	AND (A.MEMBER_STOP_DTM <= now() OR A.MEMBER_STOP_DTM = '0000-00-00 00:00:00')
	-- 회원상태 확인
	AND A.MEMBER_STATE = 'M2'
	
	<if test="adminYn == null or adminYn == 'false'">
	-- 기업전체
	AND A.COMPANY_SEQ = #{companySeq}
		<if test="comAdminYn == null or comAdminYn == 'false'">
		AND A.MEMBER_COMPANY_INFO = #{companySeq}
		</if>
	</if>
) CC
WHERE 1 = 1
<if test="supportField != null and supportField != ''">
-- 지원분야[공코 : SUPPORT_FIELD ]
AND SUPPORT_FIELD = #{supportField}
</if>
<if test="hopeCast != null and hopeCast != ''">
-- 희망배역[공코 : HOPE_CAST ]
AND HOPE_CAST = #{hopeCast}
</if>
<if test="startAge != null and startAge != '' and endAge != null and endAge != ''">
-- 연령
<![CDATA[
AND MEMBER_AGE >= #{startAge}
AND MEMBER_AGE <= #{endAge}
]]>
</if>
<if test="memberGender != null and memberGender != ''">
-- 성별
AND MEMBER_GENDER = #{memberGender}
</if>
<if test="heightStart != null and heightStart != '' and heightEnd != null and heightEnd != ''">
-- 키
<![CDATA[
AND HEIGHT >= #{heightStart}
AND HEIGHT <= #{heightEnd}
]]>
</if>
<if test="weightStart != null and weightStart != '' and weightEnd != null and weightEnd != ''">
-- 몸무게
<![CDATA[
AND WEIGHT >= #{weightStart}
AND HEIGHT <= #{weightEnd}
]]>
</if>
<if test="requestCount != null and requestCount != ''">
-- 출연횟수
AND REQUEST_COUNT > #{requestCount}
</if>
<if test="bodyInfo != null and bodyInfo != ''">
-- 신체사항[공코 : BODY_INFO ]
AND BODY_INFO = #{bodyInfo}
</if>
<if test="classInfo != null and classInfo != ''">
-- 보유 방송등급[공코 : CLASS_INFO ]
AND CLASS_INFO = #{classInfo}
</if>
<if test="hairHeight != null and hairHeight != ''">
-- 헤어길이[공코 : HAIR_HEIGHT ]
AND HAIR_HEIGHT = #{hairHeight}
</if>
<if test="tatooInfo != null and tatooInfo != ''">
-- 타투여부[공코 : TATOO_INFO ]
AND TATOO_INFO = #{tatooInfo}
</if>
<if test="pierInfo != null and pierInfo != ''">
-- 피어싱여부[공코 : PIER_INFO ]
AND PIER_INFO = #{pierInfo}
</if>
<choose>
	<when test='searchKind != null and searchKind =="1" and searchData != null and searchData !=""'>
	-- 지역
	AND MEMBER_ADDR LIKE '%${searchData}%'
	</when>
	<when test='searchKind != null and searchKind =="2" and searchData != null and searchData !=""'>
	-- 이름
	AND MEMBER_NM LIKE '%${searchData}%'
	</when>
	<when test='searchKind != null and searchKind =="3" and searchData != null and searchData !=""'>
	-- 역명
	AND MEMBER_SUBWAY_NAME LIKE '%${searchData}%'
	</when>
	<otherwise></otherwise>
</choose>
<if test="startDate != null and startDate != '' and endDate != null and endDate != ''">
-- 촬영 가능일
AND  MEMBER_SEQ NOT IN (
	SELECT AA.MEMBER_SEQ
	FROM tb_member_base AA, 			-- 회원 기본
		 tb_member_schedule BB  	-- 일정 불가능 테이블 
	WHERE AA.MEMBER_SEQ = BB.BUSN_LINK_KEY
	AND AA.MEMBER_SEQ = MEMBER_SEQ
	AND BB.SCHEDULE_DTM BETWEEN #{startDate} AND #{endDate}
	GROUP BY AA.MEMBER_SEQ
)
</if>
-- 관심출연자 조회
AND MEMBER_INTERSET > 0
LIMIT #{startNo}, #{endNo}



+++++++++++++++++++++++++++++++++++++++++++++++++++++
SQL :  출연수락/요청중 출연자 조회(최고관리자는 모두,스케줄팀장,지부장,반장은 본인 프로그램 조회)
+++++++++++++++++++++++++++++++++++++++++++++++++++++
파라미터 :

+++++++++++++++++++++++++++++++++++++++++++++++++++++
SELECT 
A.MEMBER_SEQ,				-- 회원 일련번호
A.MEMBER_NM,				-- 회원 이름
A.MEMBER_GENDER,			-- 회원 성별
(	SELECT COMMON_INFO_VALUE2 
		FROM tb_common_info 
		WHERE COMMON_INFO_CODE = 'GENDER' 
		AND COMMON_INFO_VALUE1 =  A.MEMBER_GENDER	) AS MEMBER_GENDER_NM,	-- 성별
A.MEMBER_AGE,				-- 회원 나이
A.MEMBER_ADDR,				-- 회원 기본주소
A.MEMBER_ADDR_DETAIL,		-- 회원 상세 주소
A.MEMBER_ADDR_NO,			-- 회원 우편번호
A.HEIGHT,					-- 키
A.WEIGHT,					-- 몸무게
B.HAIR_STATE,				-- 헤어상태
(	SELECT COMMON_INFO_VALUE2 
	FROM tb_common_info 
	WHERE COMMON_INFO_CODE = 'HAIR_STATE' 
	AND COMMON_INFO_VALUE1 =  B.HAIR_STATE	) AS HAIR_STATE_NM,	-- 헤어상태
A.MEMBER_SUBWAY_NAME,		-- 가까운 지하철역
A.MEMBER_SUBWAY_TIME,		-- 소요시간
B.DRESS_BASE_COUNT, 		-- 의상기본정장 벌수
B.DRESS_BASE_COLOR, 		-- 의상기본정장 색상
B.DRESS_SEMI_COUNT, 		-- 의상세미정장 벌수
B.DRESS_SEMI_COLOR, 		-- 의상세미정장 색상
B.DRESS_BLACK_SHOES, 		-- 의상검정구두
B.DRESS_SWIMSUIT, 			-- 의상수영복
B.DRESS_SCHOOL_UNIFORM, 	-- 의상교복
B.DRESS_MILITARY_BOOTS, 	-- 의상군화
A.PHOTO_ATTACH_SEQS,		-- 이미지 일련번호(프로그램에서 배열처리해서 웹경로 조회)
(
	SELECT COUNT(*) FROM tb_member_interset 
	WHERE 1 = 1
	<if test="adminYn == null or adminYn == 'false'">
	AND COMPANY_SEQ = #{companySeq} 
		<if test="comAdminYn == null or comAdminYn == 'false'">
		AND COMPANY_MEMBER_SEQ = #{companyMemberSeq} 
		</if>
	</if> 
	AND MEMBER_SEQ = A.MEMBER_SEQ
) AS MEMBER_INTERSET,		-- 관심회원 여부 0 = 관심회원아님
B.SUPPORT_FIELD,			-- 지원분야
B.HOPE_CAST,				-- 희망배역
(
	SELECT COUNT(*) FROM tb_requst_info 
	WHERE MEMBER_SEQ = A.MEMBER_SEQ 
	AND REQUEST_STATE = 'R2' 
	AND COMPANY_MEMBER_END_DTM != '0000-00-00 00:00:00' 
	AND ATTEND_NO_STATE = 'A1'
) REQUEST_COUNT,			-- 출연횟수
B.BODY_INFO,				-- 신체사항
B.CLASS_INFO,				-- 보유 방송등급
B.HAIR_HEIGHT,				-- 헤어길이
B.TATOO_INFO,				-- 문신여부
B.PIER_INFO,				-- 피어싱 여부
C.REQUST_INFO_SEQ,			-- 신청 일련번호	
C.REQUEST_STATE,			-- 요청 수락 취소상태
C.REQUEST_KIND,				-- 개인, 기업
C.RCUT_BASE_SEQ				-- 모집 일련번호
FROM tb_member_base A, -- 회원 기본
 tb_member_detail B,	-- 회원 상세
 tb_requst_info C
WHERE A.MEMBER_SEQ = B.MEMBER_SEQ
AND A.MEMBER_SEQ = C.MEMBER_SEQ
-- 정지 상태가 아닌회원
<![CDATA[
AND (A.MEMBER_STOP_DTM <= now() OR A.MEMBER_STOP_DTM = '0000-00-00 00:00:00')
]]>
-- 회원상태 확인
AND A.MEMBER_STATE = 'M2'
<if test="adminYn == null or adminYn == 'false'">
-- 기업전체
AND C.COMPANY_SEQ = #{companySeq}
<if test="comAdminYn == null or comAdminYn == 'false'">
AND C.RCUT_BASE_SEQ IN(
		SELECT RCUT_BASE_SEQ FROM tb_charge_info WHERE COMPANY_MEMBER_SEQ = #{companyMemberSeq}
		AND RCUT_BASE_SEQ = C.RCUT_BASE_SEQ
	)
</if>
</if>
-- 출연수락/요청중
AND C.REQUEST_STATE IN ('R1','R2')
-- 모집 일련번호 검색어
<if test="rcutBaseSeq != null and rcutBaseSeq != ''">
AND C.RCUT_BASE_SEQ = #{rcutBaseSeq}
</if>
-- 이름
<if test="searchData != null and searchData != ''">
AND A.MEMBER_NM LIKE '%${searchData}%'
</if>
LIMIT #{startNo}, #{endNo}


+++++++++++++++++++++++++++++++++++++++++++++++++++++
SQL :  출연자 조회 화면  모집 리스트 조회
+++++++++++++++++++++++++++++++++++++++++++++++++++++
파라미터 :

+++++++++++++++++++++++++++++++++++++++++++++++++++++

SELECT * FROM tb_rcut_base A
WHERE 1 = 1
<if test="adminYn == null or adminYn == 'false'">
	-- 기업전체
	AND A.COMPANY_SEQ = #{companySeq}
	<if test="comAdminYn == null or comAdminYn == 'false'">
	AND A.RCUT_BASE_SEQ IN(
			SELECT RCUT_BASE_SEQ FROM tb_charge_info WHERE COMPANY_MEMBER_SEQ = #{companyMemberSeq}
			AND RCUT_BASE_SEQ = A.RCUT_BASE_SEQ
		)
	</if>
</if>




+++++++++++++++++++++++++++++++++++++++++++++++++++++
SQL :  출연완료 모집정보 조회(최고관리자는 모두,스케줄팀장,지부장,반장은 본인 프로그램 조회)
+++++++++++++++++++++++++++++++++++++++++++++++++++++
파라미터 :

+++++++++++++++++++++++++++++++++++++++++++++++++++++



SELECT * FROM
(
	SELECT 
		A.MEMBER_SEQ,				-- 회원 일련번호
		A.MEMBER_NM,				-- 회원 이름
		A.MEMBER_GENDER,			-- 회원 성별
		(	SELECT COMMON_INFO_VALUE2 
			FROM tb_common_info 
			WHERE COMMON_INFO_CODE = 'GENDER' 
			AND COMMON_INFO_VALUE1 =  A.MEMBER_GENDER	) AS MEMBER_GENDER_NM,	-- 성별
		A.MEMBER_AGE,				-- 회원 나이
		A.MEMBER_ADDR,				-- 회원 기본주소
		A.MEMBER_ADDR_DETAIL,		-- 회원 상세 주소
		A.MEMBER_ADDR_NO,			-- 회원 우편번호
		A.HEIGHT,					-- 키
		A.WEIGHT,					-- 몸무게
		B.HAIR_STATE,				-- 헤어상태
		(	SELECT COMMON_INFO_VALUE2 
			FROM tb_common_info 
			WHERE COMMON_INFO_CODE = 'HAIR_STATE' 
			AND COMMON_INFO_VALUE1 =  B.HAIR_STATE	) AS HAIR_STATE_NM,	-- 헤어상태
		A.MEMBER_SUBWAY_NAME,		-- 가까운 지하철역
		A.MEMBER_SUBWAY_TIME,		-- 소요시간
		B.DRESS_BASE_COUNT, 		-- 의상기본정장 벌수
		B.DRESS_BASE_COLOR, 		-- 의상기본정장 색상
		B.DRESS_SEMI_COUNT, 		-- 의상세미정장 벌수
		B.DRESS_SEMI_COLOR, 		-- 의상세미정장 색상
		B.DRESS_BLACK_SHOES, 		-- 의상검정구두
		B.DRESS_SWIMSUIT, 			-- 의상수영복
		B.DRESS_SCHOOL_UNIFORM, 	-- 의상교복
		B.DRESS_MILITARY_BOOTS, 	-- 의상군화
		A.PHOTO_ATTACH_SEQS,		-- 이미지 일련번호(프로그램에서 배열처리해서 웹경로 조회)
		(
			SELECT COUNT(*) FROM tb_member_interset WHERE COMPANY_SEQ = #{companySeq} AND COMPANY_MEMBER_SEQ = #{companyMemberSeq} AND MEMBER_SEQ = A.MEMBER_SEQ
		) AS MEMBER_INTERSET,		-- 관심회원 여부 0 = 관심회원아님
		B.SUPPORT_FIELD,			-- 지원분야
		B.HOPE_CAST,				-- 희망배역
		(
			SELECT COUNT(*) FROM tb_requst_info WHERE MEMBER_SEQ = A.MEMBER_SEQ AND REQUEST_STATE = 'R2' AND COMPANY_MEMBER_END_DTM != '0000-00-00 00:00:00' AND ATTEND_NO_STATE = 'A1'
		) REQUEST_COUNT,			-- 출연횟수
		B.BODY_INFO,				-- 신체사항
		B.CLASS_INFO,				-- 보유 방송등급
		B.HAIR_HEIGHT,				-- 헤어길이
		B.TATOO_INFO,				-- 문신여부
		B.PIER_INFO,				-- 피어싱 여부
		C.SCHEDULE_DTM				-- 일정 불가능 일정
	FROM tb_member_base A, -- 회원 기본
		 tb_member_detail B,-- 회원 상세
		 tb_requst_info C
	WHERE A.MEMBER_SEQ = B.MEMBER_SEQ
	AND A.MEMBER_SEQ = C.MEMBER_SEQ
	-- 정지 상태가 아닌회원
	AND (A.MEMBER_STOP_DTM <= now() OR A.MEMBER_STOP_DTM = '0000-00-00 00:00:00')
	-- 회원상태 확인
	AND A.MEMBER_STATE = 'M2'
	-- 출연완료
	-- 어플관리자가 아닐경우
	AND C.COMPANY_SEQ = #{companySeq}
	-- 기업 최고관리자가 아닐경우
	AND C.COMPANY_MEMBER_SEQ = #{companyMemberSeq}
	-- 출연완료 조건
	AND C.REQUEST_STATE = 'R2'
	AND C.COMPANY_MEMBER_END_DTM != '0000-00-00 00:00:00' 
	AND C.ATTEND_NO_STATE = 'A1'
	-- 모집 일련번호 검색어
	AND C.RCUT_BASE_SEQ = #{rcutBaseSeq}
	
)
-- 지원분야[공코 : SUPPORT_FIELD ]
AND SUPPORT_FIELD = #{supportField}
-- 희망배역[공코 : HOPE_CAST ]
AND HOPE_CAST = #{hopeCast}
-- 연령
AND MEMBER_AGE >= #{startAge}
AND MEMBER_AGE <= #{endAge}
-- 성별
AND MEMBER_GENDER = #{memberGender}
-- 키
AND HEIGHT = #{height}
-- 몸무게
AND WEIGHT = #{weight}
-- 출연횟수
AND REQUEST_COUNT > #{requestCount}
-- 신체사항[공코 : BODY_INFO ]
AND BODY_INFO = #{bodyInfo}
-- 보유 방송등급[공코 : CLASS_INFO ]
AND CLASS_INFO = #{classInfo}
-- 헤어길이[공코 : HAIR_HEIGHT ]
AND HAIR_HEIGHT = #{hairHeight}
-- 타투여부[공코 : TATOO_INFO ]
AND TATOO_INFO = #{tatooInfo}
-- 피어싱여부[공코 : PIER_INFO ]
AND PIER_INFO = #{pierInfo}
-- 지역
AND MEMBER_ADDR LIKE '%' || #{searchData} || '%'
-- 이름
AND MEMBER_NM LIKE '%' || #{searchData} || '%'
-- 역명
AND MEMBER_SUBWAY_NAME LIKE '%' || #{searchData} || '%'
-- 촬영 가능일
AND  MEMBER_SEQ NOT IN (
	SELECT AA.MEMBER_SEQ
	FROM tb_member_base AA, 			-- 회원 기본
		 tb_member_schedule BB,  	-- 일정 불가능 테이블 
	WHERE AA.MEMBER_SEQ = BB.BUSN_LINK_KEY
	AND AA.MEMBER_SEQ = MEMBER_SEQ
	AND BB.SCHEDULE_DTM BETWEEN #{startDate} AND #{endDate}
	GROUP BY AA.MEMBER_SEQ
)
LIMIT #{startNo}, #{endNo}




+++++++++++++++++++++++++++++++++++++++++++++++++++++
SQL :  신규 담당자 등록
+++++++++++++++++++++++++++++++++++++++++++++++++++++
파라미터 :

+++++++++++++++++++++++++++++++++++++++++++++++++++++

INSERT INTO tb_company_member( 
			COMPANY_SEQ, 
			COMPANY_MEMBER_NAME, 
			COMPANY_MEMBER_POSITION, 
			COMPANY_MEMBER_ID, 
			COMPANY_MEMBER_PWD, 
			CEO_YN,
			<if test="companyMemberTel != null and companyMemberTel != ''">
			COMPANY_MEMBER_TEL,
			</if>
			COMPANY_MEMBER_PHONE_KIND, 
			COMPANY_MEMBER_PHONE_NO, 
			AUTH_INFO_SEQ,
			<if test="pushId != null and pushId != ''">  
			PUSH_ID, 
			</if>
			<if test="pushType != null and pushType != ''">
			PUSH_TYPE, 
			</if>
			<if test="companyMemberEmail != null and companyMemberEmail != ''">
			COMPANY_MEMBER_EMAIL,
			</if>
			COMPANY_MEMBER_ORG_NAME, 
			CREATE_NO, TRT_NO, CREATE_DTM, TRT_DTM)
		VALUES( 
			#{companySeq}, 
			#{companyMemberName},
			#{companyMemberPosition},
			#{companyMemberId}, 
			#{companyMemberPwd}, 
			#{ceoYn},
			<if test="companyMemberTel != null and companyMemberTel != ''">
			#{companyMemberTel},
			</if>
			#{companyMemberPhoneKind}, 
			#{companyMemberPhoneNo}, 
			#{autnInfoSeq},
			<if test="pushId != null and pushId != ''"> 
			#{pushId}, 
			</if>
			<if test="pushType != null and pushType != ''">
			#{pushType}, 
			</if>
			<if test="companyMemberEmail != null and companyMemberEmail != ''">
			#{companyMemberEmail}, 
			</if>
			SELECT AUTH_INFO_NAME FROM tb_auth_info WHERE AUTH_INFO_SEQ = #{authInfoSeq}), 
			#{companyMemberSeq}, #{companyMemberSeq}, now(), now())

-- 소속(권한)정보
SELECT * FROM tb_auth_info
WHERE COMPANY_SEQ = #{companySeq}



+++++++++++++++++++++++++++++++++++++++++++++++++++++
SQL :  담당자 수정
+++++++++++++++++++++++++++++++++++++++++++++++++++++
파라미터 :

+++++++++++++++++++++++++++++++++++++++++++++++++++++

UPDATE tb_company_member SET COMPANY_MEMBER_POSITION = #{companyMemeberPosition}, COMPANY_MEMBER_PWD = #{companyMemberPwd}, COMPANY_MEMBER_TEL = #{companyMemberTel}, COMPANY_MEMBER_PHONE_KIND = #{companyMemberPhoneKind}, COMPANY_MEMBER_PHONE_NO = #{companyMemberPhoneNo}, AUTH_INFO_SEQ = #{authInfoSeq}, COMPANY_MEMBER_EMAIL = #{companyMemberEmail}, COMPANY_MEMBER_ORG_NAME = (SELECT AUTH_INFO_NAME FROM tb_auth_info WHERE AUTH_INFO_SEQ = #{authInfoSeq}), TRT_DTM = now(), TRT_NO = #{loginCompanyMemberSeq}
WHERE COMPANY_MEMBER_SEQ = #{companyMemberSeq}


+++++++++++++++++++++++++++++++++++++++++++++++++++++
SQL :  담당자 삭제
+++++++++++++++++++++++++++++++++++++++++++++++++++++
파라미터 :

+++++++++++++++++++++++++++++++++++++++++++++++++++++

DLELTE FROM tb_company_member
WHERE COMPANY_MEMBER_SEQ = #{companyMemberSeq}
AND COMPANY_SEQ = #{companySeq}

+++++++++++++++++++++++++++++++++++++++++++++++++++++
SQL :  권한 등록
+++++++++++++++++++++++++++++++++++++++++++++++++++++
파라미터 :

+++++++++++++++++++++++++++++++++++++++++++++++++++++

INSERT INTO tb_auth_info( COMPANY_SEQ, AUTH_INFO_KIND, AUTH_INFO_NAME, AUTH_INFO_MENU_CODE, AUTH_INFO_AlARM_CODE, CREATE_DTM, TRT_DTM, CREATE_NO, TRT_NO)
VALUES( #{companySeq}, #{authInfoSeq}, #{authInfoName}, #{authInfoMenuCode}, #{authInfoAlarmCode}, now(), now(), #{companyMemberSeq}, #{companyMemberSeq})



+++++++++++++++++++++++++++++++++++++++++++++++++++++
SQL :  권한 수정
+++++++++++++++++++++++++++++++++++++++++++++++++++++
파라미터 :

+++++++++++++++++++++++++++++++++++++++++++++++++++++
UPDATE tb_auth_info SET AUTH_INFO_NAME = #{authInfoName}, AUTH_INFO_MENU_CODE = #{authInfoMenuCode}, AUTH_INFO_AlARM_CODE = #{authInfoAlarmCode}
		TRT_DTM = now(), TRT_NO = #{companyMemberSeq}
WHERE AUTH_INFO_SEQ = #{authInfoSeq}




+++++++++++++++++++++++++++++++++++++++++++++++++++++
SQL :  정산 목록 (프로그램) 조회
+++++++++++++++++++++++++++++++++++++++++++++++++++++
파라미터 :

+++++++++++++++++++++++++++++++++++++++++++++++++++++
-- 프로그램 목록만 조회 

SELECT 
	B.PGM_BASE_SEQ,															-- 프로그램일련번호
	MAX(B.PGM_NAME),														-- 프로그램명
FROM tb_rcut_base A, 		-- 모집기본
	 tb_pgm_base B		-- 프로그램기본
WHERE 1 = 1
AND A.PGM_BASE_SEQ = B.PGM_BASE_SEQ	
AND A.COMPANY_SEQ = #{companySeq}
-- 종료프로그램
AND (A.PGM_END_DTM < now() OR A.RCUT_BASE_STATE = 'R3' OR A.PGM_REAL_END_DTM != '0000-00-00 00:00:00' )
GROUP BY B.PGM_BASE_SEQ

- 리스트 조회
SELECT 

	A.RCUT_BASE_SEQ,														-- 모집일련번호
	(	SELECT COMMON_INFO_VALUE2 
		FROM tb_common_info 
		WHERE COMMON_INFO_CODE = 'PGM_REUT_FIELD' 
		AND COMMON_INFO_VALUE1 =  B.PGM_REUT_FIELD	) AS PGM_REUT_FIELD_NM,	-- 프로그램 분야
	(	SELECT COMMON_INFO_VALUE2 
		FROM tb_common_info 
		WHERE COMMON_INFO_CODE = 'HOPE_CAST' 
		AND COMMON_INFO_VALUE1 =  A.PGM_HOPE_CAST	) AS PGM_HOPE_CAST,		-- 모집분야
	B.PGM_NAME,																-- 프로그램명
	A.PGM_START_DTM,														-- 촬영시작일시
	A.PGM_END_DTM,															-- 촬영종료일시
	A.PGM_POINT,															-- 촬영장소
	COALESCE(A.PGM_IMG_ATTACH_SEQ, B.PGM_IMG_ATTACH_SEQ) AS PGM_IMG_ATTACH_SEQ,	-- 대표이미지 일련번호
	(
		SELECT FILE_WEB_PATH FROM tb_attach WHERE ATTACH_SEQ = COALESCE(A.PGM_IMG_ATTACH_SEQ, B.PGM_IMG_ATTACH_SEQ)
	) AS FILE_WEB_PATH,													-- 대표이미지 웹경로
	(SELECT GROUP_CONCAT(COMPANY_MEMBER_SEQ , '') FROM tb_charge_info WHERE RCUT_BASE_SEQ = A.RCUT_BASE_SEQ) AS COMPANY_MEMBER_SEQS -- 담당자리스트
FROM tb_rcut_base A, 		-- 모집기본
	 tb_pgm_base B		-- 프로그램기본

WHERE 1 = 1
AND A.PGM_BASE_SEQ = B.PGM_BASE_SEQ	
AND A.COMPANY_SEQ = #{companySeq}
-- 종료프로그램
AND (A.PGM_END_DTM < now() OR A.RCUT_BASE_STATE = 'R3' OR A.PGM_REAL_END_DTM != '0000-00-00 00:00:00' )
-- 촬영일 조회
AND A.PGM_START_DTM >= #{startDate}
AND A.PGM_END_DTM <= #{endDate}
-- 프로그램 제목 조회
AND B.PGM_NAME LIKE '%' || #{searchData} || '%'
ORDER BY A.CREATE_DTM DESC  		-- 등록일
LIMIT #{startNo}, #{endNo}




+++++++++++++++++++++++++++++++++++++++++++++++++++++
SQL :  정산 목록 상세 조회
+++++++++++++++++++++++++++++++++++++++++++++++++++++
파라미터 :

+++++++++++++++++++++++++++++++++++++++++++++++++++++
SELECT * 
FROM (
	SELECT 
		AA.MEMBER_SEQ,
		AA.MEMBER_NM,
		AA.MEMBER_HP,
		AA.MEMBER_HP_KIND,
		AA.ACC_BANK_NAME,
		AA.ACC_NO,
		AA.ACC_NO,
		AA.MEMBER_RRN,
		BB.COMPANY_MEMBER_ATTEND_DTM,
		BB.COMPANY_MEMBER_ATTEND_POINT,
		BB.COMPANY_MEMBER_END_DTM,
		BB.COMPANY_MEMBER_END_POINT,
		BB.COMPANY_MEMBER_SEQ,
		(
			SELECT COMPANY_MEMBER_NAME FROM tb_company_member WHERE COMPANY_MEMBER_SEQ = BB.COMPANY_MEMBER_SEQ
		) AS COMPANY_MEMBER_NAME,
		(
			SELECT COMPANY_MEMBER_POSITION FROM tb_company_member WHERE COMPANY_MEMBER_SEQ = BB.COMPANY_MEMBER_SEQ
		) AS COMPANY_MEMBER_POSITION,
		(
			SELECT COMPANY_MEMBER_PHONE_NO FROM tb_company_member WHERE COMPANY_MEMBER_SEQ = BB.COMPANY_MEMBER_SEQ
		) AS COMPANY_MEMBER_PHONE_NO,
		CASE
		   WHEN BB.CALCULATE_STATE IS NULL
		   THEN 'A1'
		   WHEN BB.CALCULATE_STATE = 'C1'
		   THEN 'A2'
		   WHEN BB.CALCULATE_STATE = 'C2'
		   THEN 'A3'
		   ELSE ''
		END AS CALCULATE_STATE_CODE,		--  정산상태코드
		CASE
		   WHEN BB.CALCULATE_STATE IS NULL
		   THEN '미정산'
		   WHEN BB.CALCULATE_STATE = 'C1'
		   THEN '정산완료'
		   WHEN BB.CALCULATE_STATE = 'C2'
		   THEN '정산불가'
		   ELSE ''
		END AS CALCULATE_STATE_CODE_NAME	--  정산상태코드명
		
	FROM TB_MEMBER_BASE AA, (
		SELECT *
		FROM tb_requst_info A LEFT OUTER JOIN tb_calculate B ON A.MEMBER_SEQ = B.MEMEBER_SEQ
		WHERE RCUT_BASE_SEQ = #{rcutBaseSeq}
	) BB
	WHERE AA.MEMBER_SEQ = BB.MEMBER_SEQ
) AAA
WHERE 1 = 1
AND CALCULATE_STATE_CODE = #{calculateStateCode}
LIMIT #{startNo}, #{endNo}




+++++++++++++++++++++++++++++++++++++++++++++++++++++
SQL :  정산 완료 처리
+++++++++++++++++++++++++++++++++++++++++++++++++++++
파라미터 : {calculateState} C1 : 정산완료 C2 : 정산불가

+++++++++++++++++++++++++++++++++++++++++++++++++++++
INSERT INTO tb_calculate ( MEMBER_SEQ, COMPANY_SEQ, CALCULATE_STATE, COMPANY_MEMBER_SEQ, RCUT_BASE_SEQ, ACC_NO, ACC_BANK_NAME,
							ACC_NAME, ATTEND_DTM, ATTEND_POINT, END_DTM, END_POINT, TOT_TM, CREATE_DTM, TRT_DTM, CREATE_NO, TRT_NO)
VALUES( #{memberSeq}, #{companySeq}, #{calculateState}, #{companyMemberSeq}, #{rcutBaseSeq}, #{accNo}, #{accBankName}, #{accName},
		#{attendDtm}, #{attendPoint}, #{endDtm}, #{endPoint}, #{totTm}, now(), now(), #{companyMemberSeq}, #{companyMemberSeq})


+++++++++++++++++++++++++++++++++++++++++++++++++++++
SQL :  QNA 목록 조회
+++++++++++++++++++++++++++++++++++++++++++++++++++++
파라미터 :

+++++++++++++++++++++++++++++++++++++++++++++++++++++

SELECT 
	QNA_QUE_SEQ,		-- 질문 일련번호
	COMPANY_SEQ,		-- 회사 일련번호
	STATE,				-- 처리 상태
	QNA_KIND,			-- 질문종류코드
	(	SELECT COMMON_INFO_VALUE2 
			FROM tb_common_info 
			WHERE COMMON_INFO_CODE = 'QNA_KIND' 
			AND COMMON_INFO_VALUE1 =  QNA_KIND	) AS QNA_KIND_NM,	-- 질문종류
	PGM_BASE_SEQ,						-- 프로그램 일련번호
	TITLE,								-- 타이틀
	DETAIL_CNTN,						-- 내용
	MEMBER_SEQ,							-- 회원 일련번호
	WRITE_NAME,							-- 질문자 이름
	WRITE_PHONE,						-- 질문자 전화번호
	WRITE_EMAIL							-- 질문자 이메일

FROM tb_qna_que
WHERE 1 = 1
AND COMPANY_SEQ = #{companySeq}
ORDER BY QNA_QUE_SEQ DESC   
LIMIT #{startNo}, #{endNo}



+++++++++++++++++++++++++++++++++++++++++++++++++++++
SQL :  QNA 목록 상세
+++++++++++++++++++++++++++++++++++++++++++++++++++++
파라미터 :

+++++++++++++++++++++++++++++++++++++++++++++++++++++



SELECT 
	-- 문의 내역
	A.QNA_QUE_SEQ,		-- 질문 일련번호
	A.COMPANY_SEQ,		-- 회사 일련번호
	A.STATE,				-- 처리 상태
	A.QNA_KIND,			-- 질문종류코드
	(	SELECT COMMON_INFO_VALUE2 
			FROM tb_common_info 
			WHERE COMMON_INFO_CODE = 'QNA_KIND' 
			AND COMMON_INFO_VALUE1 =  A.QNA_KIND	) AS QNA_KIND_NM,	-- 질문종류
	A.PGM_BASE_SEQ,						-- 프로그램 일련번호
	A.TITLE,								-- 타이틀
	A.DETAIL_CNTN AS DETAIL_CNTN1,		-- 내용
	A.MEMBER_SEQ,							-- 회원 일련번호
	A.WRITE_NAME,							-- 질문자 이름
	A.WRITE_PHONE,						-- 질문자 전화번호
	A.WRITE_EMAIL,						-- 질문자 이메일

	-- 답변내역
	B.QNA_ANSWER_SEQ,						-- 답변 일련번호
	B.DETAIL_CNTN AS DETAIL_CNTN2,			-- 답변 내용
	B.COMPANY_MEMBER_SEQ,					-- 담당자 일련번호
	(
		SELECT COMPANY_MEMBER_NAME FROM tb_company_member WHERE COMPANY_MEMBER_SEQ = B.COMPANY_MEMBER_SEQ
	) AS COMPANY_MEMBER_NAME


FROM tb_qna_que A LEFT OUTER JOIN tb_qna_answer B ON A.QNA_QUE_SEQ = B.QNA_QUE_SEQ
WHERE 1 = 1
AND A.QNA_QUE_SEQ = #{qnaQueSeq}



+++++++++++++++++++++++++++++++++++++++++++++++++++++
SQL :  QNA 답변 처리
+++++++++++++++++++++++++++++++++++++++++++++++++++++
파라미터 :

+++++++++++++++++++++++++++++++++++++++++++++++++++++
INSERT INTO tb_qna_answer(QNA_QUE_SEQ, DETAIL_CNTN, COMPANY_MEMBER_SEQ, CREATE_DTM, TRT_DTM, CREATE_NO, TRT_NO)
VALUES( #{qnaQueSeq}, #{detailCntn}, #{companyMemberSeq}, now(), now(), #{companyMemberSeq}, #{companyMemberSeq}) 



+++++++++++++++++++++++++++++++++++++++++++++++++++++
SQL :  보낸 알림 조회 (모집정보리스트 : selectRcutSelelctBoxList)
+++++++++++++++++++++++++++++++++++++++++++++++++++++
파라미터 :

+++++++++++++++++++++++++++++++++++++++++++++++++++++


SELECT 
	A.PUSH_SEND_SEQ,			-- 푸쉬메시지일련변호
	A.MESSAGE_TYPE,			-- 푸쉬종류
	(	SELECT COMMON_INFO_VALUE2 
		FROM tb_common_info 
		WHERE COMMON_INFO_CODE = 'MESSAGE_TYPE' 
		AND COMMON_INFO_VALUE1 =  A.MESSAGE_TYPE	) AS MESSAGE_TYPE_NM,	-- 푸쉬종류
	A.MESSAGE,				-- 푸쉬내용
	A.PGM_BASE_SEQ,			-- 프로그램 일련번호
	A.RCUT_BASE_SEQ,		-- 모집 일련번호
	A.TITLE,				-- 푸쉬제목
	A.RESERVE_DTM,			-- 보낸일시
	A.PUSH_ID,				-- 고객푸쉬아이디
	A.PUSH_TYPE,			-- (1:PSID[안드로이드], 2: CUID[아이폰])
	(	SELECT COMMON_INFO_VALUE2 
		FROM tb_common_info 
		WHERE COMMON_INFO_CODE = 'PUSH_TYPE' 
		AND COMMON_INFO_VALUE1 =  A.PUSH_TYPE	) AS PUSH_TYPE_NM,	-- (1:PSID[안드로이드], 2: CUID[아이폰])
	A.STATE_CODE,				-- (Y:성공,F:실패, N:초기)
	(	SELECT COMMON_INFO_VALUE2 
		FROM tb_common_info 
		WHERE COMMON_INFO_CODE = 'STATE_CODE' 
		AND COMMON_INFO_VALUE1 =  A.STATE_CODE	) AS STATE_CODE_NM,	-- (Y:성공,F:실패, N:초기)
	A.MSG_TYPE,				-- (1:배치,2프로그램)	
	(	SELECT COMMON_INFO_VALUE2 
		FROM tb_common_info 
		WHERE COMMON_INFO_CODE = 'MSG_TYPE' 
		AND COMMON_INFO_VALUE1 =  A.MSG_TYPE	) AS MSG_TYPE_NM,	-- (1:배치,2프로그램)	
		
		
		
	B.PUSH_RESULT_SEQ,			-- 푸쉬결과일련번호
	B.AGREE_NOSEND,				-- 미동의로 푸쉬미발송
	B.RESULT_CODE,				-- 푸쉬결과코드[성공,실패]
	(	SELECT COMMON_INFO_VALUE2 
		FROM tb_common_info 
		WHERE COMMON_INFO_CODE = 'RESULT_CODE' 
		AND COMMON_INFO_VALUE1 =  B.RESULT_CODE	) AS RESULT_CODE_NM,	-- 푸쉬결과코드[성공,실패]
	B.RESULT_MGS,				-- 푸쉬결과내용
	B.STATE_CODE,				-- (Y:성공,F:실패, N:초기)
	(	SELECT COMMON_INFO_VALUE2 
		FROM tb_common_info 
		WHERE COMMON_INFO_CODE = 'STATE_CODE' 
		AND COMMON_INFO_VALUE1 =  B.STATE_CODE	) AS STATE_CODE_NM,		-- (Y:성공,F:실패, N:초기)
	B.OPEN_YN,					-- (Y:확인, N:미확인)
	(	SELECT COMMON_INFO_VALUE2 
		FROM tb_common_info 
		WHERE COMMON_INFO_CODE = 'OPEN_YN' 
		AND COMMON_INFO_VALUE1 =  B.OPEN_YN	) AS OPEN_YN_NM				-- (Y:확인, N:미확인)

FROM tb_push_send A, tb_push_result B
WHERE A.PUSH_SEND_SEQ = B.PUSH_SEND_SEQ
AND A.COMPANY_MEMEBER_SEQ = #{companyMemberSeq}
AND A.MESSAGE_TYPE = #{messageType}				-- 푸쉬종류
AND A.RCUT_BASE_SEQ = #{rcutBaseSeq}			-- 모집 일련번호
ORDER BY A.RESERVE_DTM DESC						-- 발송일시
LIMIT #{startNo}, #{endNo}



+++++++++++++++++++++++++++++++++++++++++++++++++++++
SQL : 기업 정보(대표담당자) 조회
+++++++++++++++++++++++++++++++++++++++++++++++++++++
파라미터 :

+++++++++++++++++++++++++++++++++++++++++++++++++++++
SELECT
	A.COMPANY_SEQ,							-- 기업기본시퀀스
	A.COMPANY_NM,							-- 기업명	
	A.COMPANY_CEO_NM,						-- 대표자명
	A.COMPANY_NO_ATTACH_SEQ,				-- 사업자등록증첨부번호
	A.COMPANY_ACC_ATTACH_SEQ,				-- 통장사본첨부번호
	A.COMPANY_PERMISSION_ATTACH_SEQ,		-- 대중문화예술기획업 허가증 첨부번호
	A.COMPANY_JOB_PROVE_ATTACH_SEQ,			-- 직업소개소 증빙자료 첨부번호
	A.COMPANY_ETC_ATTACH_SEQ,				-- 기타증빙서류첨부번호
	A.ACC_NO,								-- 계좌번호
	A.ACC_BANK_NAME,						-- 계좌은행
	A.ACC_NAME,								-- 계좌예금주
	A.COMPANY_TEL1,							-- 연락처1
	A.COMPANY_TEL2,							-- 연락처2
	A.COMPANY_EMAIL,						-- 이메일
	
	B.COMPANY_MEMBER_SEQ,					-- 담당자일려번호
	B.COMPANY_MEMBER_ID,					-- 담당자아이디
	B.COMPANY_MEMBER_PWD					-- 담당자패스워드
	
FROM tb_company_base A, tb_company_member B
WHERE COMPANY_SEQ = #{companySeq}
AND CEO_YN = 'Y'

+++++++++++++++++++++++++++++++++++++++++++++++++++++
SQL : 기업 정보 수정
+++++++++++++++++++++++++++++++++++++++++++++++++++++
파라미터 :

+++++++++++++++++++++++++++++++++++++++++++++++++++++
UPDATE tb_company_base A, tb_company_member B SET A.COMPANY_NO_ATTACH_SEQ = #{companyNoAttachSeq}, 
						A.COMPANY_ACC_ATTACH_SEQ = #{companyAccAttachSeq}, A.COMPANY_PERMISSION_ATTACH_SEQ = #{companyPermissionAttachSeq}
						A.COMPANY_JOB_PROVE_ATTACH_SEQ = #{companyJobProveAttachSeq}, A.COMPANY_ETC_ATTACH_SEQ = #{companyEtcAttachSeq}, 
						A.ACC_NO = #{accNo}, A.ACC_BANK_NAME= #{accBankName} ,A.ACC_NAME= #{accName},
						A.COMPANY_TEL1 = #{companyTel1}, A.COMPANY_TEL2= #{companyTel2}, A.COMPANY_EMAIL = #{companyEmail}, 
						B.COMPANY_MEMBER_PWD = #{companyMemeberPwd}
WHERE COMPANY_SEQ = #{companySeq}
AND CEO_YN = 'Y'



+++++++++++++++++++++++++++++++++++++++++++++++++++++
SQL : 정보 동의현황 등록
+++++++++++++++++++++++++++++++++++++++++++++++++++++
파라미터 :

+++++++++++++++++++++++++++++++++++++++++++++++++++++
가입 및 요청 (회원정보조회(정보동의등록)) 쿼리 사용

+++++++++++++++++++++++++++++++++++++++++++++++++++++
SQL : 정보 동의현황 조회
+++++++++++++++++++++++++++++++++++++++++++++++++++++
파라미터 :

+++++++++++++++++++++++++++++++++++++++++++++++++++++
가입 및 요청 (회원정보조회(정보동의)) 쿼리 사용

+++++++++++++++++++++++++++++++++++++++++++++++++++++
SQL : 정보 동의현황 수정(GPS,PUSH,개인정보 구인목적외)
+++++++++++++++++++++++++++++++++++++++++++++++++++++
파라미터 :

+++++++++++++++++++++++++++++++++++++++++++++++++++++
가입 및 요청 (회원정보조회(정보동의등록)) 쿼리 사용 