################쿠폰 테이블#####################

+++++++++++++++++++++++++++++++++++++++++++++++++++++
SQL : 쿠폰 리스트(TB_CP_LIST)
+++++++++++++++++++++++++++++++++++++++++++++++++++++

CREATE TABLE TB_CP_LIST (
	CP_LIST_SEQ INT NOT NULL AUTO_INCREMENT,
	CP_NAME VARCHAR(256),
	CP_USE_USER CHAR(3),
	CP_COUNT INT,
	CP_AMOUNT VARCHAR(100),
	CP_SALE_AMOUNT VARCHAR(100),
	CP_USE_YN CHAR(1),
	CREATE_DTM TIMESTAMP NOT NULL,
	CREATE_NO VARCHAR(100) NOT NULL,
	TRT_DTM TIMESTAMP NOT NULL,
	TRT_NO VARCHAR(100) NOT NULL,
	
	PRIMARY KEY(CP_LIST_SEQ)
	
);

ALTER TABLE `tb_cp_list` 
CHANGE COLUMN `CREATE_DTM` `CREATE_DTM` TIMESTAMP NOT NULL DEFAULT '0000-00-00 00:00:00' ;

INSERT INTO tb_cp_list ( CP_NAME, CP_USE_USER, CP_COUNT, CP_AMOUNT, CP_SALE_AMOUNT, CP_USE_YN, CREATE_DTM, TRT_DTM, CREATE_NO, TRT_NO )
VALUES( '어플관리자 선물', '', 9999999, 0, 0, 'Y', now(), now(), 'SYSTEM', 'SYSTEM' )

INSERT INTO tb_cp_list ( CP_NAME, CP_USE_USER, CP_COUNT, CP_AMOUNT, CP_SALE_AMOUNT, CP_USE_YN, CREATE_DTM, TRT_DTM, CREATE_NO, TRT_NO )
VALUES( '판매쿠폰 1', 'C1', 100, 10000, 9900, 'Y', now(), now(), 'SYSTEM', 'SYSTEM' )


INSERT INTO tb_cp_list ( CP_NAME, CP_USE_USER, CP_COUNT, CP_AMOUNT, CP_SALE_AMOUNT, CP_USE_YN, CREATE_DTM, TRT_DTM, CREATE_NO, TRT_NO )
VALUES( '판매쿠폰 1', 'C2', 100, 10000, 9900, 'Y', now(), now(), 'SYSTEM', 'SYSTEM' )



+++++++++++++++++++++++++++++++++++++++++++++++++++++
쿠폰 리스트(TB_CP_LIST)
+++++++++++++++++++++++++++++++++++++++++++++++++++++
CP_LIST_SEQ(쿠폰일련번호)
CP_NAME(쿠폰명)
CP_USE_USER([공코]쿠폰사용자(출연자,기업))
CP_COUNT(쿠폰개수)
CP_AMOUNT(금액)
CP_SALE_AMOUNT(할인금액)
CP_USE_YN(사용여부)
CREATE_DTM(생성일자)
CREATE_NO(생성자)
TRT_DTM(수정일자)
TRT_NO(수정자)


+++++++++++++++++++++++++++++++++++++++++++++++++++++
SQL : 쿠폰 구매 리스트(TB_CP_BUY_LIST)
+++++++++++++++++++++++++++++++++++++++++++++++++++++

CREATE TABLE TB_CP_BUY_LIST (
	CP_BUY_LIST_SEQ INT NOT NULL AUTO_INCREMENT,
	CP_LIST_SEQ INT NOT NULL,
	CP_BUY_KIND CHAR(3),
	CP_BUY_DTM TIMESTAMP NOT NULL,
	BUSN_LINK_KEY INT NOT NULL,
	BUSN_LINK_KEY_TYPE CHAR(3),
	CP_BUY_COUNT INT NOT NULL,
	CP_COUNT INT NOT NULL,
	CP_BUY_AMOUNT VARCHAR(100) NOT NULL,
	CP_BUY_PAY_KIND CHAR(3),
	CP_INIT_YN CHAR(3),
	CP_INIT_INFO TEXT,
	CP_GIFT_INFO TEXT,
	CP_PAYMENT_SEQ INT,
	CREATE_DTM TIMESTAMP NOT NULL,
	CREATE_NO VARCHAR(100) NOT NULL,
	TRT_DTM TIMESTAMP NOT NULL,
	TRT_NO VARCHAR(100) NOT NULL,
	
	PRIMARY KEY(CP_BUY_LIST_SEQ)
	
);

ALTER TABLE `tb_cp_buy_list` 
CHANGE COLUMN `CP_BUY_DTM` `CP_BUY_DTM` TIMESTAMP NOT NULL DEFAULT '0000-00-00 00:00:00' ;

ALTER TABLE `tb_cp_buy_list` 
CHANGE COLUMN `CREATE_DTM` `CREATE_DTM` TIMESTAMP NOT NULL DEFAULT '0000-00-00 00:00:00' ;


+++++++++++++++++++++++++++++++++++++++++++++++++++++
쿠폰 구매 리스트(TB_CP_BUY_LIST)
+++++++++++++++++++++++++++++++++++++++++++++++++++++
CP_BUY_LIST_SEQ(쿠폰구매일련번호)
CP_LIST_SEQ(쿠폰일련번호)
CP_BUY_KIND([공코]쿠폰구매종류(결제,선물))
CP_BUY_DTM(구매일시)
BUSN_LINK_KEY(회원기본시퀀스OR기업기본시퀀스)
BUSN_LINK_KEY_TYPE
CP_BUY_COUNT(구매개수)
CP_COUNT(유효한쿠폰개수)
CP_BUY_AMOUNT(구매금액)
CP_INIT_YN(초기화여부)
CP_INIT_INFO(초기화사유)
CP_GIFT_INFO(선물사유)
CP_BUY_PAY_KIND([공코]결제방식[현금,신용카드,계좌이체])
CP_PAYMENT_SEQ(결제일련번호)
CREATE_DTM(생성일자)
CREATE_NO(생성자)
TRT_DTM(수정일자)
TRT_NO(수정자)


+++++++++++++++++++++++++++++++++++++++++++++++++++++
SQL : 쿠폰 사용 리스트(TB_CP_USE_LIST)
+++++++++++++++++++++++++++++++++++++++++++++++++++++

CREATE TABLE TB_CP_USE_LIST (
	CP_USE_SEQ INT NOT NULL AUTO_INCREMENT,
	CP_BUY_LIST_SEQ INT,
	BUSN_LINK_KEY INT NOT NULL,
	BUSN_LINK_KEY_TYPE CHAR(3),
	CP_USE_COUNT INT,
	CP_USE_DTM TIMESTAMP,
	CP_USE_STATE CHAR(3),
	CP_USE_CANCEL_INFO TEXT,
	CP_USE_CANCEL_DTM TIMESTAMP,
	PGM_BASE_SEQ INT,
	PGM_NAME VARCHAR(200),
	RCUT_BASE_SEQ INT,
	CREATE_DTM TIMESTAMP NOT NULL,
	CREATE_NO VARCHAR(100) NOT NULL,
	TRT_DTM TIMESTAMP NOT NULL,
	TRT_NO VARCHAR(100) NOT NULL,
	
	PRIMARY KEY(CP_USE_SEQ)
	
);

ALTER TABLE `tb_cp_use_list` 
CHANGE COLUMN `CP_USE_DTM` `CP_USE_DTM` TIMESTAMP NOT NULL DEFAULT '0000-00-00 00:00:00' ;

ALTER TABLE `tb_cp_use_list` 
CHANGE COLUMN `CREATE_DTM` `CREATE_DTM` TIMESTAMP NOT NULL DEFAULT '0000-00-00 00:00:00' ;


+++++++++++++++++++++++++++++++++++++++++++++++++++++
쿠폰 사용 리스트(TB_CP_USE_LIST)
+++++++++++++++++++++++++++++++++++++++++++++++++++++
CP_USE_SEQ(쿠폰사용리스트일련번호)
CP_BUY_LIST_SEQ(쿠폰구매일련번호)
BUSN_LINK_KEY(회원기본시퀀스OR기업기본시퀀스)
BUSN_LINK_KEY_TYPE
CP_USE_COUNT(사용개수)
CP_USE_DTM(사용일시)
CP_USE_STATE([공코]상태(Y:정상,N:취소))
CP_USE_CANCEL_INFO(취소사유)
CP_USE_CANCEL_DTM(취소일시)
PGM_BASE_SEQ(프로그램기본일련번호)
PGM_NAME(프로그램명)
RCUT_BASE_SEQ(모집일련번호)
CREATE_DTM(생성일자)
CREATE_NO(생성자)
TRT_DTM(수정일자)
TRT_NO(수정자)


+++++++++++++++++++++++++++++++++++++++++++++++++++++
SQL : 결제 내역(CP_PAYMENT_LIST)
+++++++++++++++++++++++++++++++++++++++++++++++++++++

CREATE TABLE CP_PAYMENT_LIST (
	CP_PAYMENT_SEQ INT NOT NULL AUTO_INCREMENT,
	PAYMENT_STATUS CHAR(3),
	FAIL_MSG TEXT,
	FAIL_DTM TIMESTAMP,
	BUSN_LINK_KEY INT,
	BUSN_LINK_KEY_TYPE CHAR(3),
	CP_BUY_PAY_KIND CHAR(3),
	CP_LIST_SEQ INT,
	PAYMENT_USE_YN  CHAR(3),
	CREATE_DTM TIMESTAMP NOT NULL,
	CREATE_NO VARCHAR(100) NOT NULL,
	TRT_DTM TIMESTAMP NOT NULL,
	TRT_NO VARCHAR(100) NOT NULL,
	
	
	PRIMARY KEY(CP_PAYMENT_SEQ)
	
);


ALTER TABLE `cp_payment_list` 
CHANGE COLUMN `CREATE_DTM` `CREATE_DTM` TIMESTAMP NOT NULL DEFAULT '0000-00-00 00:00:00' ;

ALTER TABLE `cp_payment_list` 
CHANGE COLUMN `FAIL_DTM` `FAIL_DTM` TIMESTAMP NOT NULL DEFAULT '0000-00-00 00:00:00' ;

-- 테스트 Data
INSERT INTO `cp_payment_list` ( `PAYMENT_STATUS`, `BUSN_LINK_KEY`, `BUSN_LINK_KEY_TYPE`, `CP_BUY_PAY_KIND`, `CREATE_DTM`, `CREATE_NO`, `TRT_DTM`, `TRT_NO`, `CP_LIST_SEQ`, `PAYMENT_USE_YN`) 
VALUES ('P1', '1', 'B1', 'C1', now(), '1', now(), '1', '1', 'N')

+++++++++++++++++++++++++++++++++++++++++++++++++++++
결제 내역(CP_PAYMENT_LIST)
+++++++++++++++++++++++++++++++++++++++++++++++++++++
CP_PAYMENT_SEQ(결제일련번호)
PAYMENT_STATUS(결제성공여부)
FAIL_MSG(실패사유)
FAIL_DTM(실패일시)
BUSN_LINK_KEY (회원,회사일련번호)
BUSN_LINK_KEY_TYPE (관련회원종류)
CP_BUY_PAY_KIND(공코 결제방식)
CP_LIST_SEQ(판매상품일련번호)
PAYMENT_USE_YN(결제사용여부)


