################프로그램 모집 테이블#####################

+++++++++++++++++++++++++++++++++++++++++++++++++++++
SQL : 모집 기본(TB_RCUT_BASE)
+++++++++++++++++++++++++++++++++++++++++++++++++++++

CREATE TABLE TB_RCUT_BASE (
	RCUT_BASE_SEQ INT NOT NULL AUTO_INCREMENT,
	PGM_BASE_SEQ INT NOT NULL,
	COMPANY_SEQ INT NOT NULL,
	PGM_START_DTM TIMESTAMP,
	PGM_END_DTM TIMESTAMP,
	PGM_HOPE_CAST CHAR(3),
	PGM_HOPE_CAST_ETC VARCHAR(256),
	PGM_POINT VARCHAR(256),
	PGM_MEETING_HOUR CHAR(10) NOT NULL,
	PGM_MEETING_MINITE CHAR(10) NOT NULL,
	PGM_SUPPLIES TEXT,
	PGM_MAIN_SCENE TEXT,
	PGM_ETC_INFO TEXT,
	COMPANY_MEMBER_SEQ INT,
	PGM_IMG_ATTACH_SEQ INT,
	PGM_REAL_END_DTM TIMESTAMP,
	PGM_END_COMPANY_MEMBER_SEQ INT,
	RCUT_BASE_STATE CHAR(3),
	EMER_YN CHAR(1),
	READING_YN CHAR(1),
	CREATE_DTM TIMESTAMP NOT NULL,
	CREATE_NO VARCHAR(100) NOT NULL,
	TRT_DTM TIMESTAMP NOT NULL,
	TRT_NO VARCHAR(100) NOT NULL,
	
	PRIMARY KEY(RCUT_BASE_SEQ)
	
);

ALTER TABLE `tb_rcut_base` 
CHANGE COLUMN `PGM_START_DTM` `PGM_START_DTM` TIMESTAMP NOT NULL DEFAULT '0000-00-00 00:00:00' ;


+++++++++++++++++++++++++++++++++++++++++++++++++++++
모집 기본(TB_RCUT_BASE)
+++++++++++++++++++++++++++++++++++++++++++++++++++++
RCUT_BASE_SEQ(모집기본일련번호)
PGM_BASE_SEQ(프로그램기본일련번호)
COMPANY_SEQ(기업기본시퀀스)
PGM_START_DTM(촬영시작)
PGM_END_DTM(촬영종료)
PGM_HOPE_CAST([공코]모집분야)
PGM_HOPE_CAST_ETC(모집분야기타)
PGM_POINT(촬영장소)
PGM_MEETING_HOUR(모임시간(시))
PGM_MEETING_MINITE(모임시간(분))
PGM_SUPPLIES(준비물)
PGM_MAIN_SCENE(주요장면)
PGM_ETC_INFO(기타사항)
COMPANY_MEMBER_SEQ(담당자대표)
PGM_IMG_ATTACH_SEQ(대표이미지)
PGM_REAL_END_DTM(촬영종료시간)
PGM_END_COMPANY_MEMBER_SEQ(촬영종료발생담당자)
RCUT_BASE_STATE([공코]모집상태값(1:모집중,2:모집종료,3:촬영종료))
EMER_YN(급구모집여부)
READING_YN(추천모집여부)
CREATE_DTM(생성일자)
CREATE_NO(생성자)
TRT_DTM(수정일자)
TRT_NO(수정자)


+++++++++++++++++++++++++++++++++++++++++++++++++++++
SQL : 모집 인원 정보(TB_RCUT_SUB_INFO)
+++++++++++++++++++++++++++++++++++++++++++++++++++++

CREATE TABLE TB_RCUT_SUB_INFO (
	RCUT_SUB_INFO_SEQ INT NOT NULL AUTO_INCREMENT,
	RCUT_BASE_SEQ INT,
	AGE_MIN INT,
	AGE_MAX INT,
	GENDER CHAR(3),
	PEOPLE_NUM INT,
	DRESS_INFO TEXT,
	PART_INFO TEXT,
	CREATE_DTM TIMESTAMP NOT NULL,
	CREATE_NO VARCHAR(100) NOT NULL,
	TRT_DTM TIMESTAMP NOT NULL,
	TRT_NO VARCHAR(100) NOT NULL,
	
	PRIMARY KEY(RCUT_SUB_INFO_SEQ)
	
);

ALTER TABLE `tb_rcut_sub_info` 
CHANGE COLUMN `CREATE_DTM` `CREATE_DTM` TIMESTAMP NOT NULL DEFAULT '0000-00-00 00:00:00' ;


+++++++++++++++++++++++++++++++++++++++++++++++++++++
모집 인원 정보(TB_RCUT_SUB_INFO)
+++++++++++++++++++++++++++++++++++++++++++++++++++++
RCUT_SUB_INFO_SEQ(모집인원정보일련번호)
RCUT_BASE_SEQ(모집기본일련번호)
AGE_MIN(연령MIN)
AGE_MAX(연령MAX)
GENDER(성별)
PEOPLE_NUM(인원수)
DRESS_INFO(의상)
PART_INFO(역활)
CREATE_DTM(생성일자)
CREATE_NO(생성자)
TRT_DTM(수정일자)
TRT_NO(수정자)



+++++++++++++++++++++++++++++++++++++++++++++++++++++
SQL : 모집 기본 이력(TB_RCUT_BASE_HIS)
+++++++++++++++++++++++++++++++++++++++++++++++++++++

CREATE TABLE TB_RCUT_BASE_HIS (
	RCUT_BASE_HIS_SEQ INT NOT NULL AUTO_INCREMENT,
	RCUT_BASE_SEQ INT,
	PGM_BASE_SEQ INT NOT NULL,
	HIS_KIND CHAR(3),
	COMPANY_SEQ INT NOT NULL,
	PGM_START_DTM TIMESTAMP,
	PGM_END_DTM TIMESTAMP,
	PGM_HOPE_CAST CHAR(3),
	PGM_HOPE_CAST_ETC VARCHAR(256),
	PGM_POINT VARCHAR(256),
	PGM_MEETING_HOUR CHAR(10) NOT NULL,
	PGM_MEETING_MINITE CHAR(10) NOT NULL,
	PGM_SUPPLIES TEXT,
	PGM_MAIN_SCENE TEXT,
	PGM_ETC_INFO TEXT,
	COMPANY_MEMBER_SEQ INT,
	PGM_IMG_ATTACH_SEQ INT,
	PGM_REAL_END_DTM TIMESTAMP,
	PGM_END_COMPANY_MEMBER_SEQ INT,
	RCUT_BASE_STATE CHAR(3),
	EMER_YN CHAR(1),
	READING_YN CHAR(1),
	CREATE_DTM TIMESTAMP NOT NULL,
	CREATE_NO VARCHAR(100) NOT NULL,
	TRT_DTM TIMESTAMP NOT NULL,
	TRT_NO VARCHAR(100) NOT NULL,
	
	PRIMARY KEY(RCUT_BASE_HIS_SEQ)
	
);

ALTER TABLE `tb_rcut_base_his` 
CHANGE COLUMN `PGM_START_DTM` `PGM_START_DTM` TIMESTAMP NOT NULL DEFAULT '0000-00-00 00:00:00' ;


+++++++++++++++++++++++++++++++++++++++++++++++++++++
모집 기본 이력(TB_RCUT_BASE_HIS)
+++++++++++++++++++++++++++++++++++++++++++++++++++++
RCUT_BASE_HIS_SEQ(모집기본이력히스토리일련번호)
RCUT_BASE_SEQ(모집기본일련번호)
PGM_BASE_SEQ(프로그램기본일련번호)
HIS_KIND([공코]1:등록,2:수정)
COMPANY_SEQ(기업기본시퀀스)
PGM_START_DTM(촬영시작)
PGM_END_DTM(촬영종료)
PGM_HOPE_CAST([공코]모집분야)
PGM_HOPE_CAST_ETC(모집분야기타)
PGM_POINT(촬영장소)
PGM_MEETING_HOUR(모임시간(시))
PGM_MEETING_MINITE(모임시간(분))
PGM_SUPPLIES(준비물)
PGM_MAIN_SCENE(주요장면)
PGM_ETC_INFO(기타사항)
COMPANY_MEMBER_SEQ(담당자대표)
PGM_IMG_ATTACH_SEQ(대표이미지)
PGM_REAL_END_DTM(촬영종료시간)
PGM_END_COMPANY_MEMBER_SEQ(촬영종료발생담당자)
모집상태값(1:모집중,2:모집종료,3:촬영종료)
EMER_YN(급구모집여부)
READING_YN(추천모집여부)
CREATE_DTM(생성일자)
CREATE_NO(생성자)
TRT_DTM(수정일자)
TRT_NO(수정자)


+++++++++++++++++++++++++++++++++++++++++++++++++++++
SQL : 모집 인원 정보 이력 (TB_RCUT_SUB_INFO_HIS)
+++++++++++++++++++++++++++++++++++++++++++++++++++++

CREATE TABLE TB_RCUT_SUB_INFO_HIS (
	RCUT_SUB_INFO_HIS_SEQ INT NOT NULL AUTO_INCREMENT,
	RCUT_SUB_INFO_SEQ INT,
	RCUT_BASE_SEQ INT,
	HIS_KIND CHAR(3),
	AGE_MIN INT,
	AGE_MAX INT,
	GENDER CHAR(3),
	PEOPLE_NUM INT,
	DRESS_INFO TEXT,
	PART_INFO TEXT,
	CREATE_DTM TIMESTAMP NOT NULL,
	CREATE_NO VARCHAR(100) NOT NULL,
	TRT_DTM TIMESTAMP NOT NULL,
	TRT_NO VARCHAR(100) NOT NULL,
	
	PRIMARY KEY(RCUT_SUB_INFO_HIS_SEQ)
	
);

ALTER TABLE `tb_rcut_sub_info_his` 
CHANGE COLUMN `CREATE_DTM` `CREATE_DTM` TIMESTAMP NOT NULL DEFAULT '0000-00-00 00:00:00' ;


+++++++++++++++++++++++++++++++++++++++++++++++++++++
모집 인원 정보 이력 (TB_RCUT_SUB_INFO_HIS)
+++++++++++++++++++++++++++++++++++++++++++++++++++++
RCUT_SUB_INFO_HIS_SEQ(모집인원정보이력일련번호)
RCUT_SUB_INFO_SEQ(모집인원정보일련번호)
RCUT_BASE_SEQ(모집기본일련번호)
HIS_KIND([공코]1:등록,2:수정)
AGE_MIN(연령MIN)
AGE_MAX(연령MAX)
GENDER(성별)
PEOPLE_NUM(인원수)
DRESS_INFO(의상)
PART_INFO(역활)
CREATE_DTM(생성일자)
CREATE_NO(생성자)
TRT_DTM(수정일자)
TRT_NO(수정자)



+++++++++++++++++++++++++++++++++++++++++++++++++++++
SQL : 담당자정보(TB_CHARGE_INFO)
+++++++++++++++++++++++++++++++++++++++++++++++++++++

CREATE TABLE TB_CHARGE_INFO (
	CHARGE_INFO_SEQ INT NOT NULL AUTO_INCREMENT,
	CHARGE_KIND CHAR(3),
	PGM_BASE_SEQ INT,
	RCUT_BASE_SEQ INT,
	COMPANY_MEMBER_SEQ INT,
	CREATE_DTM TIMESTAMP NOT NULL,
	CREATE_NO VARCHAR(100) NOT NULL,
	TRT_DTM TIMESTAMP NOT NULL,
	TRT_NO VARCHAR(100) NOT NULL,
	
	PRIMARY KEY(CHARGE_INFO_SEQ)
	
);

ALTER TABLE `tb_charge_info` 
CHANGE COLUMN `CREATE_DTM` `CREATE_DTM` TIMESTAMP NOT NULL DEFAULT '0000-00-00 00:00:00' ;


+++++++++++++++++++++++++++++++++++++++++++++++++++++
담당자정보(TB_CHARGE_INFO)
+++++++++++++++++++++++++++++++++++++++++++++++++++++
CHARGE_INFO_SEQ(담당자 일련번호)
CHARGE_KIND([공코]담당자종류(프로그램,모집))
PGM_BASE_SEQ(프로그램기본일련번호)
RCUT_BASE_SEQ(모집기본일련번호)
COMPANY_MEMBER_SEQ(담당자일련번호)
CREATE_DTM(생성일자)
CREATE_NO(생성자)
TRT_DTM(수정일자)
TRT_NO(수정자)


